
{
  "response": {
  "version":"0.1",
  "termsofService":"http://www.wunderground.com/weather/api/d/terms.html",
  "features": {
  "history": 1
  }
	}
		,
	"history": {
		"date": {
		"pretty": "February 4, 2015",
		"year": "2015",
		"mon": "02",
		"mday": "04",
		"hour": "12",
		"min": "00",
		"tzname": "America/Los_Angeles"
		},
		"utcdate": {
		"pretty": "February 4, 2015",
		"year": "2015",
		"mon": "02",
		"mday": "04",
		"hour": "20",
		"min": "00",
		"tzname": "UTC"
		},
		"observations": [
		{
		"date": {
		"pretty": "12:15 AM PST on February 04, 2015",
		"year": "2015",
		"mon": "02",
		"mday": "04",
		"hour": "00",
		"min": "15",
		"tzname": "America/Los_Angeles"
		},
		"utcdate": {
		"pretty": "8:15 AM GMT on February 04, 2015",
		"year": "2015",
		"mon": "02",
		"mday": "04",
		"hour": "08",
		"min": "15",
		"tzname": "UTC"
		},
		"tempm":"10.0", "tempi":"50.0","dewptm":"10.0", "dewpti":"50.0","hum":"100","wspdm":"5.6", "wspdi":"3.5","wgustm":"-9999.0", "wgusti":"-9999.0","wdird":"10","wdire":"North","vism":"16.1", "visi":"10.0","pressurem":"1019.2", "pressurei":"30.10","windchillm":"-999", "windchilli":"-999","heatindexm":"-9999", "heatindexi":"-9999","precipm":"-9999.00", "precipi":"-9999.00","conds":"Clear","icon":"clear","fog":"0","rain":"0","snow":"0","hail":"0","thunder":"0","tornado":"0","metar":"METAR KCIC 040815Z AUTO 01003KT 10SM CLR 10/10 A3010 RMK AO1" },
		{
		"date": {
		"pretty": "12:35 AM PST on February 04, 2015",
		"year": "2015",
		"mon": "02",
		"mday": "04",
		"hour": "00",
		"min": "35",
		"tzname": "America/Los_Angeles"
		},
		"utcdate": {
		"pretty": "8:35 AM GMT on February 04, 2015",
		"year": "2015",
		"mon": "02",
		"mday": "04",
		"hour": "08",
		"min": "35",
		"tzname": "UTC"
		},
		"tempm":"11.0", "tempi":"51.8","dewptm":"10.0", "dewpti":"50.0","hum":"94","wspdm":"0.0", "wspdi":"0.0","wgustm":"-9999.0", "wgusti":"-9999.0","wdird":"0","wdire":"North","vism":"16.1", "visi":"10.0","pressurem":"1018.8", "pressurei":"30.09","windchillm":"-999", "windchilli":"-999","heatindexm":"-9999", "heatindexi":"-9999","precipm":"-9999.00", "precipi":"-9999.00","conds":"Clear","icon":"clear","fog":"0","rain":"0","snow":"0","hail":"0","thunder":"0","tornado":"0","metar":"METAR KCIC 040835Z AUTO 00000KT 10SM CLR 11/10 A3009 RMK AO1" },
		{
		"date": {
		"pretty": "12:55 AM PST on February 04, 2015",
		"year": "2015",
		"mon": "02",
		"mday": "04",
		"hour": "00",
		"min": "55",
		"tzname": "America/Los_Angeles"
		},
		"utcdate": {
		"pretty": "8:55 AM GMT on February 04, 2015",
		"year": "2015",
		"mon": "02",
		"mday": "04",
		"hour": "08",
		"min": "55",
		"tzname": "UTC"
		},
		"tempm":"9.0", "tempi":"48.2","dewptm":"9.0", "dewpti":"48.2","hum":"100","wspdm":"0.0", "wspdi":"0.0","wgustm":"-9999.0", "wgusti":"-9999.0","wdird":"0","wdire":"North","vism":"16.1", "visi":"10.0","pressurem":"1018.8", "pressurei":"30.09","windchillm":"-999", "windchilli":"-999","heatindexm":"-9999", "heatindexi":"-9999","precipm":"-9999.00", "precipi":"-9999.00","conds":"Clear","icon":"clear","fog":"0","rain":"0","snow":"0","hail":"0","thunder":"0","tornado":"0","metar":"METAR KCIC 040855Z AUTO 00000KT 10SM CLR 09/09 A3009 RMK AO1" },
		{
		"date": {
		"pretty": "1:15 AM PST on February 04, 2015",
		"year": "2015",
		"mon": "02",
		"mday": "04",
		"hour": "01",
		"min": "15",
		"tzname": "America/Los_Angeles"
		},
		"utcdate": {
		"pretty": "9:15 AM GMT on February 04, 2015",
		"year": "2015",
		"mon": "02",
		"mday": "04",
		"hour": "09",
		"min": "15",
		"tzname": "UTC"
		},
		"tempm":"9.0", "tempi":"48.2","dewptm":"9.0", "dewpti":"48.2","hum":"100","wspdm":"0.0", "wspdi":"0.0","wgustm":"-9999.0", "wgusti":"-9999.0","wdird":"0","wdire":"North","vism":"16.1", "visi":"10.0","pressurem":"1018.5", "pressurei":"30.08","windchillm":"-999", "windchilli":"-999","heatindexm":"-9999", "heatindexi":"-9999","precipm":"-9999.00", "precipi":"-9999.00","conds":"Clear","icon":"clear","fog":"0","rain":"0","snow":"0","hail":"0","thunder":"0","tornado":"0","metar":"METAR KCIC 040915Z AUTO 00000KT 10SM CLR 09/09 A3008 RMK AO1" },
		{
		"date": {
		"pretty": "1:35 AM PST on February 04, 2015",
		"year": "2015",
		"mon": "02",
		"mday": "04",
		"hour": "01",
		"min": "35",
		"tzname": "America/Los_Angeles"
		},
		"utcdate": {
		"pretty": "9:35 AM GMT on February 04, 2015",
		"year": "2015",
		"mon": "02",
		"mday": "04",
		"hour": "09",
		"min": "35",
		"tzname": "UTC"
		},
		"tempm":"9.0", "tempi":"48.2","dewptm":"9.0", "dewpti":"48.2","hum":"100","wspdm":"0.0", "wspdi":"0.0","wgustm":"-9999.0", "wgusti":"-9999.0","wdird":"0","wdire":"North","vism":"16.1", "visi":"10.0","pressurem":"1018.8", "pressurei":"30.09","windchillm":"-999", "windchilli":"-999","heatindexm":"-9999", "heatindexi":"-9999","precipm":"-9999.00", "precipi":"-9999.00","conds":"Partly Cloudy","icon":"partlycloudy","fog":"0","rain":"0","snow":"0","hail":"0","thunder":"0","tornado":"0","metar":"METAR KCIC 040935Z AUTO 00000KT 10SM FEW032 09/09 A3009 RMK AO1" },
		{
		"date": {
		"pretty": "1:55 AM PST on February 04, 2015",
		"year": "2015",
		"mon": "02",
		"mday": "04",
		"hour": "01",
		"min": "55",
		"tzname": "America/Los_Angeles"
		},
		"utcdate": {
		"pretty": "9:55 AM GMT on February 04, 2015",
		"year": "2015",
		"mon": "02",
		"mday": "04",
		"hour": "09",
		"min": "55",
		"tzname": "UTC"
		},
		"tempm":"8.0", "tempi":"46.4","dewptm":"8.0", "dewpti":"46.4","hum":"100","wspdm":"0.0", "wspdi":"0.0","wgustm":"-9999.0", "wgusti":"-9999.0","wdird":"0","wdire":"North","vism":"16.1", "visi":"10.0","pressurem":"1018.8", "pressurei":"30.09","windchillm":"-999", "windchilli":"-999","heatindexm":"-9999", "heatindexi":"-9999","precipm":"-9999.00", "precipi":"-9999.00","conds":"Partly Cloudy","icon":"partlycloudy","fog":"0","rain":"0","snow":"0","hail":"0","thunder":"0","tornado":"0","metar":"METAR KCIC 040955Z AUTO 00000KT 10SM FEW030 08/08 A3009 RMK AO1" },
		{
		"date": {
		"pretty": "2:15 AM PST on February 04, 2015",
		"year": "2015",
		"mon": "02",
		"mday": "04",
		"hour": "02",
		"min": "15",
		"tzname": "America/Los_Angeles"
		},
		"utcdate": {
		"pretty": "10:15 AM GMT on February 04, 2015",
		"year": "2015",
		"mon": "02",
		"mday": "04",
		"hour": "10",
		"min": "15",
		"tzname": "UTC"
		},
		"tempm":"7.0", "tempi":"44.6","dewptm":"7.0", "dewpti":"44.6","hum":"100","wspdm":"0.0", "wspdi":"0.0","wgustm":"-9999.0", "wgusti":"-9999.0","wdird":"0","wdire":"North","vism":"16.1", "visi":"10.0","pressurem":"1018.8", "pressurei":"30.09","windchillm":"-999", "windchilli":"-999","heatindexm":"-9999", "heatindexi":"-9999","precipm":"-9999.00", "precipi":"-9999.00","conds":"Partly Cloudy","icon":"partlycloudy","fog":"0","rain":"0","snow":"0","hail":"0","thunder":"0","tornado":"0","metar":"METAR KCIC 041015Z AUTO 00000KT 10SM FEW030 07/07 A3009 RMK AO1" },
		{
		"date": {
		"pretty": "2:35 AM PST on February 04, 2015",
		"year": "2015",
		"mon": "02",
		"mday": "04",
		"hour": "02",
		"min": "35",
		"tzname": "America/Los_Angeles"
		},
		"utcdate": {
		"pretty": "10:35 AM GMT on February 04, 2015",
		"year": "2015",
		"mon": "02",
		"mday": "04",
		"hour": "10",
		"min": "35",
		"tzname": "UTC"
		},
		"tempm":"8.0", "tempi":"46.4","dewptm":"8.0", "dewpti":"46.4","hum":"100","wspdm":"0.0", "wspdi":"0.0","wgustm":"-9999.0", "wgusti":"-9999.0","wdird":"0","wdire":"North","vism":"16.1", "visi":"10.0","pressurem":"1018.5", "pressurei":"30.08","windchillm":"-999", "windchilli":"-999","heatindexm":"-9999", "heatindexi":"-9999","precipm":"-9999.00", "precipi":"-9999.00","conds":"Clear","icon":"clear","fog":"0","rain":"0","snow":"0","hail":"0","thunder":"0","tornado":"0","metar":"METAR KCIC 041035Z AUTO 00000KT 10SM CLR 08/08 A3008 RMK AO1" },
		{
		"date": {
		"pretty": "2:55 AM PST on February 04, 2015",
		"year": "2015",
		"mon": "02",
		"mday": "04",
		"hour": "02",
		"min": "55",
		"tzname": "America/Los_Angeles"
		},
		"utcdate": {
		"pretty": "10:55 AM GMT on February 04, 2015",
		"year": "2015",
		"mon": "02",
		"mday": "04",
		"hour": "10",
		"min": "55",
		"tzname": "UTC"
		},
		"tempm":"9.0", "tempi":"48.2","dewptm":"9.0", "dewpti":"48.2","hum":"100","wspdm":"0.0", "wspdi":"0.0","wgustm":"-9999.0", "wgusti":"-9999.0","wdird":"0","wdire":"North","vism":"16.1", "visi":"10.0","pressurem":"1018.5", "pressurei":"30.08","windchillm":"-999", "windchilli":"-999","heatindexm":"-9999", "heatindexi":"-9999","precipm":"-9999.00", "precipi":"-9999.00","conds":"Scattered Clouds","icon":"partlycloudy","fog":"0","rain":"0","snow":"0","hail":"0","thunder":"0","tornado":"0","metar":"METAR KCIC 041055Z AUTO 00000KT 10SM SCT030 SCT035 09/09 A3008 RMK AO1" },
		{
		"date": {
		"pretty": "3:15 AM PST on February 04, 2015",
		"year": "2015",
		"mon": "02",
		"mday": "04",
		"hour": "03",
		"min": "15",
		"tzname": "America/Los_Angeles"
		},
		"utcdate": {
		"pretty": "11:15 AM GMT on February 04, 2015",
		"year": "2015",
		"mon": "02",
		"mday": "04",
		"hour": "11",
		"min": "15",
		"tzname": "UTC"
		},
		"tempm":"7.0", "tempi":"44.6","dewptm":"7.0", "dewpti":"44.6","hum":"100","wspdm":"0.0", "wspdi":"0.0","wgustm":"-9999.0", "wgusti":"-9999.0","wdird":"0","wdire":"North","vism":"16.1", "visi":"10.0","pressurem":"1018.5", "pressurei":"30.08","windchillm":"-999", "windchilli":"-999","heatindexm":"-9999", "heatindexi":"-9999","precipm":"-9999.00", "precipi":"-9999.00","conds":"Scattered Clouds","icon":"partlycloudy","fog":"0","rain":"0","snow":"0","hail":"0","thunder":"0","tornado":"0","metar":"METAR KCIC 041115Z AUTO 00000KT 10SM FEW028 SCT034 07/07 A3008 RMK AO1" },
		{
		"date": {
		"pretty": "3:35 AM PST on February 04, 2015",
		"year": "2015",
		"mon": "02",
		"mday": "04",
		"hour": "03",
		"min": "35",
		"tzname": "America/Los_Angeles"
		},
		"utcdate": {
		"pretty": "11:35 AM GMT on February 04, 2015",
		"year": "2015",
		"mon": "02",
		"mday": "04",
		"hour": "11",
		"min": "35",
		"tzname": "UTC"
		},
		"tempm":"8.0", "tempi":"46.4","dewptm":"8.0", "dewpti":"46.4","hum":"100","wspdm":"0.0", "wspdi":"0.0","wgustm":"-9999.0", "wgusti":"-9999.0","wdird":"0","wdire":"North","vism":"16.1", "visi":"10.0","pressurem":"1018.5", "pressurei":"30.08","windchillm":"-999", "windchilli":"-999","heatindexm":"-9999", "heatindexi":"-9999","precipm":"-9999.00", "precipi":"-9999.00","conds":"Scattered Clouds","icon":"partlycloudy","fog":"0","rain":"0","snow":"0","hail":"0","thunder":"0","tornado":"0","metar":"METAR KCIC 041135Z AUTO 00000KT 10SM FEW031 SCT035 08/08 A3008 RMK AO1" },
		{
		"date": {
		"pretty": "3:55 AM PST on February 04, 2015",
		"year": "2015",
		"mon": "02",
		"mday": "04",
		"hour": "03",
		"min": "55",
		"tzname": "America/Los_Angeles"
		},
		"utcdate": {
		"pretty": "11:55 AM GMT on February 04, 2015",
		"year": "2015",
		"mon": "02",
		"mday": "04",
		"hour": "11",
		"min": "55",
		"tzname": "UTC"
		},
		"tempm":"8.0", "tempi":"46.4","dewptm":"8.0", "dewpti":"46.4","hum":"100","wspdm":"0.0", "wspdi":"0.0","wgustm":"-9999.0", "wgusti":"-9999.0","wdird":"0","wdire":"North","vism":"16.1", "visi":"10.0","pressurem":"1018.5", "pressurei":"30.08","windchillm":"-999", "windchilli":"-999","heatindexm":"-9999", "heatindexi":"-9999","precipm":"-9999.00", "precipi":"-9999.00","conds":"Scattered Clouds","icon":"partlycloudy","fog":"0","rain":"0","snow":"0","hail":"0","thunder":"0","tornado":"0","metar":"METAR KCIC 041155Z AUTO 00000KT 10SM FEW030 SCT037 08/08 A3008 RMK AO1" },
		{
		"date": {
		"pretty": "4:15 AM PST on February 04, 2015",
		"year": "2015",
		"mon": "02",
		"mday": "04",
		"hour": "04",
		"min": "15",
		"tzname": "America/Los_Angeles"
		},
		"utcdate": {
		"pretty": "12:15 PM GMT on February 04, 2015",
		"year": "2015",
		"mon": "02",
		"mday": "04",
		"hour": "12",
		"min": "15",
		"tzname": "UTC"
		},
		"tempm":"8.0", "tempi":"46.4","dewptm":"8.0", "dewpti":"46.4","hum":"100","wspdm":"0.0", "wspdi":"0.0","wgustm":"-9999.0", "wgusti":"-9999.0","wdird":"0","wdire":"North","vism":"16.1", "visi":"10.0","pressurem":"1018.2", "pressurei":"30.07","windchillm":"-999", "windchilli":"-999","heatindexm":"-9999", "heatindexi":"-9999","precipm":"-9999.00", "precipi":"-9999.00","conds":"Scattered Clouds","icon":"partlycloudy","fog":"0","rain":"0","snow":"0","hail":"0","thunder":"0","tornado":"0","metar":"METAR KCIC 041215Z AUTO 00000KT 10SM SCT024 08/08 A3007 RMK AO1" },
		{
		"date": {
		"pretty": "4:35 AM PST on February 04, 2015",
		"year": "2015",
		"mon": "02",
		"mday": "04",
		"hour": "04",
		"min": "35",
		"tzname": "America/Los_Angeles"
		},
		"utcdate": {
		"pretty": "12:35 PM GMT on February 04, 2015",
		"year": "2015",
		"mon": "02",
		"mday": "04",
		"hour": "12",
		"min": "35",
		"tzname": "UTC"
		},
		"tempm":"8.0", "tempi":"46.4","dewptm":"8.0", "dewpti":"46.4","hum":"100","wspdm":"0.0", "wspdi":"0.0","wgustm":"-9999.0", "wgusti":"-9999.0","wdird":"0","wdire":"North","vism":"16.1", "visi":"10.0","pressurem":"1018.5", "pressurei":"30.08","windchillm":"-999", "windchilli":"-999","heatindexm":"-9999", "heatindexi":"-9999","precipm":"-9999.00", "precipi":"-9999.00","conds":"Mostly Cloudy","icon":"mostlycloudy","fog":"0","rain":"0","snow":"0","hail":"0","thunder":"0","tornado":"0","metar":"METAR KCIC 041235Z AUTO 00000KT 10SM BKN024 08/08 A3008 RMK AO1" },
		{
		"date": {
		"pretty": "4:55 AM PST on February 04, 2015",
		"year": "2015",
		"mon": "02",
		"mday": "04",
		"hour": "04",
		"min": "55",
		"tzname": "America/Los_Angeles"
		},
		"utcdate": {
		"pretty": "12:55 PM GMT on February 04, 2015",
		"year": "2015",
		"mon": "02",
		"mday": "04",
		"hour": "12",
		"min": "55",
		"tzname": "UTC"
		},
		"tempm":"8.0", "tempi":"46.4","dewptm":"8.0", "dewpti":"46.4","hum":"100","wspdm":"0.0", "wspdi":"0.0","wgustm":"-9999.0", "wgusti":"-9999.0","wdird":"0","wdire":"North","vism":"16.1", "visi":"10.0","pressurem":"1018.5", "pressurei":"30.08","windchillm":"-999", "windchilli":"-999","heatindexm":"-9999", "heatindexi":"-9999","precipm":"-9999.00", "precipi":"-9999.00","conds":"Overcast","icon":"cloudy","fog":"0","rain":"0","snow":"0","hail":"0","thunder":"0","tornado":"0","metar":"METAR KCIC 041255Z AUTO 00000KT 10SM OVC024 08/08 A3008 RMK AO1" },
		{
		"date": {
		"pretty": "5:15 AM PST on February 04, 2015",
		"year": "2015",
		"mon": "02",
		"mday": "04",
		"hour": "05",
		"min": "15",
		"tzname": "America/Los_Angeles"
		},
		"utcdate": {
		"pretty": "1:15 PM GMT on February 04, 2015",
		"year": "2015",
		"mon": "02",
		"mday": "04",
		"hour": "13",
		"min": "15",
		"tzname": "UTC"
		},
		"tempm":"7.0", "tempi":"44.6","dewptm":"7.0", "dewpti":"44.6","hum":"100","wspdm":"0.0", "wspdi":"0.0","wgustm":"-9999.0", "wgusti":"-9999.0","wdird":"0","wdire":"North","vism":"14.5", "visi":"9.0","pressurem":"1018.5", "pressurei":"30.08","windchillm":"-999", "windchilli":"-999","heatindexm":"-9999", "heatindexi":"-9999","precipm":"-9999.00", "precipi":"-9999.00","conds":"Mostly Cloudy","icon":"mostlycloudy","fog":"0","rain":"0","snow":"0","hail":"0","thunder":"0","tornado":"0","metar":"METAR KCIC 041315Z AUTO 00000KT 9SM BKN024 BKN030 BKN036 07/07 A3008 RMK AO1" },
		{
		"date": {
		"pretty": "5:35 AM PST on February 04, 2015",
		"year": "2015",
		"mon": "02",
		"mday": "04",
		"hour": "05",
		"min": "35",
		"tzname": "America/Los_Angeles"
		},
		"utcdate": {
		"pretty": "1:35 PM GMT on February 04, 2015",
		"year": "2015",
		"mon": "02",
		"mday": "04",
		"hour": "13",
		"min": "35",
		"tzname": "UTC"
		},
		"tempm":"6.0", "tempi":"42.8","dewptm":"6.0", "dewpti":"42.8","hum":"100","wspdm":"0.0", "wspdi":"0.0","wgustm":"-9999.0", "wgusti":"-9999.0","wdird":"0","wdire":"North","vism":"3.2", "visi":"2.0","pressurem":"1018.5", "pressurei":"30.08","windchillm":"-999", "windchilli":"-999","heatindexm":"-9999", "heatindexi":"-9999","precipm":"-9999.00", "precipi":"-9999.00","conds":"Overcast","icon":"cloudy","fog":"0","rain":"0","snow":"0","hail":"0","thunder":"0","tornado":"0","metar":"METAR KCIC 041335Z AUTO 00000KT 2SM BKN023 OVC028 06/06 A3008 RMK AO1" },
		{
		"date": {
		"pretty": "6:50 AM PST on February 04, 2015",
		"year": "2015",
		"mon": "02",
		"mday": "04",
		"hour": "06",
		"min": "50",
		"tzname": "America/Los_Angeles"
		},
		"utcdate": {
		"pretty": "2:50 PM GMT on February 04, 2015",
		"year": "2015",
		"mon": "02",
		"mday": "04",
		"hour": "14",
		"min": "50",
		"tzname": "UTC"
		},
		"tempm":"7.0", "tempi":"44.6","dewptm":"7.0", "dewpti":"44.6","hum":"100","wspdm":"0.0", "wspdi":"0.0","wgustm":"-9999.0", "wgusti":"-9999.0","wdird":"0","wdire":"North","vism":"16.1", "visi":"10.0","pressurem":"1018.5", "pressurei":"30.08","windchillm":"-999", "windchilli":"-999","heatindexm":"-9999", "heatindexi":"-9999","precipm":"-9999.00", "precipi":"-9999.00","conds":"Patches of Fog","icon":"fog","fog":"1","rain":"0","snow":"0","hail":"0","thunder":"0","tornado":"0","metar":"METAR KCIC 041450Z 00000KT 10SM BCFG SCT120 BKN200 07/07 A3008" },
		{
		"date": {
		"pretty": "7:50 AM PST on February 04, 2015",
		"year": "2015",
		"mon": "02",
		"mday": "04",
		"hour": "07",
		"min": "50",
		"tzname": "America/Los_Angeles"
		},
		"utcdate": {
		"pretty": "3:50 PM GMT on February 04, 2015",
		"year": "2015",
		"mon": "02",
		"mday": "04",
		"hour": "15",
		"min": "50",
		"tzname": "UTC"
		},
		"tempm":"8.0", "tempi":"46.4","dewptm":"8.0", "dewpti":"46.4","hum":"100","wspdm":"0.0", "wspdi":"0.0","wgustm":"-9999.0", "wgusti":"-9999.0","wdird":"0","wdire":"North","vism":"16.1", "visi":"10.0","pressurem":"1019.5", "pressurei":"30.11","windchillm":"-999", "windchilli":"-999","heatindexm":"-9999", "heatindexi":"-9999","precipm":"-9999.00", "precipi":"-9999.00","conds":"Patches of Fog","icon":"fog","fog":"1","rain":"0","snow":"0","hail":"0","thunder":"0","tornado":"0","metar":"METAR KCIC 041550Z 00000KT 10SM BCFG SCT120 BKN200 08/08 A3011" },
		{
		"date": {
		"pretty": "8:50 AM PST on February 04, 2015",
		"year": "2015",
		"mon": "02",
		"mday": "04",
		"hour": "08",
		"min": "50",
		"tzname": "America/Los_Angeles"
		},
		"utcdate": {
		"pretty": "4:50 PM GMT on February 04, 2015",
		"year": "2015",
		"mon": "02",
		"mday": "04",
		"hour": "16",
		"min": "50",
		"tzname": "UTC"
		},
		"tempm":"9.0", "tempi":"48.2","dewptm":"9.0", "dewpti":"48.2","hum":"100","wspdm":"0.0", "wspdi":"0.0","wgustm":"-9999.0", "wgusti":"-9999.0","wdird":"0","wdire":"North","vism":"16.1", "visi":"10.0","pressurem":"1019.5", "pressurei":"30.11","windchillm":"-999", "windchilli":"-999","heatindexm":"-9999", "heatindexi":"-9999","precipm":"-9999.00", "precipi":"-9999.00","conds":"Patches of Fog","icon":"fog","fog":"1","rain":"0","snow":"0","hail":"0","thunder":"0","tornado":"0","metar":"METAR KCIC 041650Z 00000KT 10SM BCFG SCT150 BKN200 09/09 A3011" },
		{
		"date": {
		"pretty": "9:48 AM PST on February 04, 2015",
		"year": "2015",
		"mon": "02",
		"mday": "04",
		"hour": "09",
		"min": "48",
		"tzname": "America/Los_Angeles"
		},
		"utcdate": {
		"pretty": "5:48 PM GMT on February 04, 2015",
		"year": "2015",
		"mon": "02",
		"mday": "04",
		"hour": "17",
		"min": "48",
		"tzname": "UTC"
		},
		"tempm":"10.0", "tempi":"50.0","dewptm":"10.0", "dewpti":"50.0","hum":"100","wspdm":"9.3", "wspdi":"5.8","wgustm":"-9999.0", "wgusti":"-9999.0","wdird":"280","wdire":"West","vism":"16.1", "visi":"10.0","pressurem":"1019.9", "pressurei":"30.12","windchillm":"-999", "windchilli":"-999","heatindexm":"-9999", "heatindexi":"-9999","precipm":"-9999.00", "precipi":"-9999.00","conds":"Mostly Cloudy","icon":"mostlycloudy","fog":"0","rain":"0","snow":"0","hail":"0","thunder":"0","tornado":"0","metar":"METAR KCIC 041748Z 28005KT 10SM SCT150 BKN200 10/10 A3012" },
		{
		"date": {
		"pretty": "10:48 AM PST on February 04, 2015",
		"year": "2015",
		"mon": "02",
		"mday": "04",
		"hour": "10",
		"min": "48",
		"tzname": "America/Los_Angeles"
		},
		"utcdate": {
		"pretty": "6:48 PM GMT on February 04, 2015",
		"year": "2015",
		"mon": "02",
		"mday": "04",
		"hour": "18",
		"min": "48",
		"tzname": "UTC"
		},
		"tempm":"12.0", "tempi":"53.6","dewptm":"10.0", "dewpti":"50.0","hum":"88","wspdm":"9.3", "wspdi":"5.8","wgustm":"-9999.0", "wgusti":"-9999.0","wdird":"280","wdire":"West","vism":"16.1", "visi":"10.0","pressurem":"1019.9", "pressurei":"30.12","windchillm":"-999", "windchilli":"-999","heatindexm":"-9999", "heatindexi":"-9999","precipm":"-9999.00", "precipi":"-9999.00","conds":"Overcast","icon":"cloudy","fog":"0","rain":"0","snow":"0","hail":"0","thunder":"0","tornado":"0","metar":"METAR KCIC 041848Z 28005KT 10SM SCT150 OVC200 12/10 A3012" },
		{
		"date": {
		"pretty": "11:48 AM PST on February 04, 2015",
		"year": "2015",
		"mon": "02",
		"mday": "04",
		"hour": "11",
		"min": "48",
		"tzname": "America/Los_Angeles"
		},
		"utcdate": {
		"pretty": "7:48 PM GMT on February 04, 2015",
		"year": "2015",
		"mon": "02",
		"mday": "04",
		"hour": "19",
		"min": "48",
		"tzname": "UTC"
		},
		"tempm":"13.0", "tempi":"55.4","dewptm":"10.0", "dewpti":"50.0","hum":"82","wspdm":"9.3", "wspdi":"5.8","wgustm":"-9999.0", "wgusti":"-9999.0","wdird":"280","wdire":"West","vism":"16.1", "visi":"10.0","pressurem":"1019.2", "pressurei":"30.10","windchillm":"-999", "windchilli":"-999","heatindexm":"-9999", "heatindexi":"-9999","precipm":"-9999.00", "precipi":"-9999.00","conds":"Overcast","icon":"cloudy","fog":"0","rain":"0","snow":"0","hail":"0","thunder":"0","tornado":"0","metar":"METAR KCIC 041948Z 28005KT 10SM SCT150 OVC200 13/10 A3010" },
		{
		"date": {
		"pretty": "2:54 PM PST on February 04, 2015",
		"year": "2015",
		"mon": "02",
		"mday": "04",
		"hour": "14",
		"min": "54",
		"tzname": "America/Los_Angeles"
		},
		"utcdate": {
		"pretty": "10:54 PM GMT on February 04, 2015",
		"year": "2015",
		"mon": "02",
		"mday": "04",
		"hour": "22",
		"min": "54",
		"tzname": "UTC"
		},
		"tempm":"18.0", "tempi":"64.4","dewptm":"11.0", "dewpti":"51.8","hum":"64","wspdm":"11.1", "wspdi":"6.9","wgustm":"-9999.0", "wgusti":"-9999.0","wdird":"120","wdire":"ESE","vism":"11.3", "visi":"7.0","pressurem":"1017.2", "pressurei":"30.04","windchillm":"-999", "windchilli":"-999","heatindexm":"-9999", "heatindexi":"-9999","precipm":"-9999.00", "precipi":"-9999.00","conds":"Overcast","icon":"cloudy","fog":"0","rain":"0","snow":"0","hail":"0","thunder":"0","tornado":"0","metar":"METAR KCIC 042254Z 12006KT 7SM SCT150 OVC200 18/11 A3004" },
		{
		"date": {
		"pretty": "3:53 PM PST on February 04, 2015",
		"year": "2015",
		"mon": "02",
		"mday": "04",
		"hour": "15",
		"min": "53",
		"tzname": "America/Los_Angeles"
		},
		"utcdate": {
		"pretty": "11:53 PM GMT on February 04, 2015",
		"year": "2015",
		"mon": "02",
		"mday": "04",
		"hour": "23",
		"min": "53",
		"tzname": "UTC"
		},
		"tempm":"18.0", "tempi":"64.4","dewptm":"9.0", "dewpti":"48.2","hum":"56","wspdm":"16.7", "wspdi":"10.4","wgustm":"-9999.0", "wgusti":"-9999.0","wdird":"130","wdire":"SE","vism":"16.1", "visi":"10.0","pressurem":"1016.1", "pressurei":"30.01","windchillm":"-999", "windchilli":"-999","heatindexm":"-9999", "heatindexi":"-9999","precipm":"-9999.00", "precipi":"-9999.00","conds":"Mostly Cloudy","icon":"mostlycloudy","fog":"0","rain":"0","snow":"0","hail":"0","thunder":"0","tornado":"0","metar":"METAR KCIC 042353Z 13009KT 10SM SCT150 BKN200 18/09 A3001" },
		{
		"date": {
		"pretty": "4:49 PM PST on February 04, 2015",
		"year": "2015",
		"mon": "02",
		"mday": "04",
		"hour": "16",
		"min": "49",
		"tzname": "America/Los_Angeles"
		},
		"utcdate": {
		"pretty": "12:49 AM GMT on February 05, 2015",
		"year": "2015",
		"mon": "02",
		"mday": "05",
		"hour": "00",
		"min": "49",
		"tzname": "UTC"
		},
		"tempm":"17.0", "tempi":"62.6","dewptm":"10.0", "dewpti":"50.0","hum":"63","wspdm":"13.0", "wspdi":"8.1","wgustm":"-9999.0", "wgusti":"-9999.0","wdird":"160","wdire":"SSE","vism":"11.3", "visi":"7.0","pressurem":"1015.8", "pressurei":"30.00","windchillm":"-999", "windchilli":"-999","heatindexm":"-9999", "heatindexi":"-9999","precipm":"-9999.00", "precipi":"-9999.00","conds":"Mostly Cloudy","icon":"mostlycloudy","fog":"0","rain":"0","snow":"0","hail":"0","thunder":"0","tornado":"0","metar":"METAR KCIC 050049Z 16007KT 7SM SCT120 BKN200 17/10 A3000" },
		{
		"date": {
		"pretty": "5:42 PM PST on February 04, 2015",
		"year": "2015",
		"mon": "02",
		"mday": "04",
		"hour": "17",
		"min": "42",
		"tzname": "America/Los_Angeles"
		},
		"utcdate": {
		"pretty": "1:42 AM GMT on February 05, 2015",
		"year": "2015",
		"mon": "02",
		"mday": "05",
		"hour": "01",
		"min": "42",
		"tzname": "UTC"
		},
		"tempm":"15.0", "tempi":"59.0","dewptm":"10.0", "dewpti":"50.0","hum":"72","wspdm":"0.0", "wspdi":"0.0","wgustm":"-9999.0", "wgusti":"-9999.0","wdird":"0","wdire":"North","vism":"11.3", "visi":"7.0","pressurem":"1016.5", "pressurei":"30.02","windchillm":"-999", "windchilli":"-999","heatindexm":"-9999", "heatindexi":"-9999","precipm":"-9999.00", "precipi":"-9999.00","conds":"Mostly Cloudy","icon":"mostlycloudy","fog":"0","rain":"0","snow":"0","hail":"0","thunder":"0","tornado":"0","metar":"METAR KCIC 050142Z 00000KTKT 7SM SCT120 BKN200 15/10 A3002" },
		{
		"date": {
		"pretty": "5:47 PM PST on February 04, 2015",
		"year": "2015",
		"mon": "02",
		"mday": "04",
		"hour": "17",
		"min": "47",
		"tzname": "America/Los_Angeles"
		},
		"utcdate": {
		"pretty": "1:47 AM GMT on February 05, 2015",
		"year": "2015",
		"mon": "02",
		"mday": "05",
		"hour": "01",
		"min": "47",
		"tzname": "UTC"
		},
		"tempm":"15.0", "tempi":"59.0","dewptm":"10.0", "dewpti":"50.0","hum":"72","wspdm":"0.0", "wspdi":"0.0","wgustm":"-9999.0", "wgusti":"-9999.0","wdird":"0","wdire":"North","vism":"11.3", "visi":"7.0","pressurem":"1016.5", "pressurei":"30.02","windchillm":"-999", "windchilli":"-999","heatindexm":"-9999", "heatindexi":"-9999","precipm":"-9999.00", "precipi":"-9999.00","conds":"Mostly Cloudy","icon":"mostlycloudy","fog":"0","rain":"0","snow":"0","hail":"0","thunder":"0","tornado":"0","metar":"METAR KCIC 050147Z COR 00000KTKT 7SM SCT120 BKN200 15/10 A3002" },
		{
		"date": {
		"pretty": "5:55 PM PST on February 04, 2015",
		"year": "2015",
		"mon": "02",
		"mday": "04",
		"hour": "17",
		"min": "55",
		"tzname": "America/Los_Angeles"
		},
		"utcdate": {
		"pretty": "1:55 AM GMT on February 05, 2015",
		"year": "2015",
		"mon": "02",
		"mday": "05",
		"hour": "01",
		"min": "55",
		"tzname": "UTC"
		},
		"tempm":"15.0", "tempi":"59.0","dewptm":"10.0", "dewpti":"50.0","hum":"72","wspdm":"0.0", "wspdi":"0.0","wgustm":"-9999.0", "wgusti":"-9999.0","wdird":"0","wdire":"North","vism":"16.1", "visi":"10.0","pressurem":"1016.5", "pressurei":"30.02","windchillm":"-999", "windchilli":"-999","heatindexm":"-9999", "heatindexi":"-9999","precipm":"-9999.00", "precipi":"-9999.00","conds":"Clear","icon":"clear","fog":"0","rain":"0","snow":"0","hail":"0","thunder":"0","tornado":"0","metar":"METAR KCIC 050155Z AUTO 00000KT 10SM CLR 15/10 A3002 RMK AO1" },
		{
		"date": {
		"pretty": "6:15 PM PST on February 04, 2015",
		"year": "2015",
		"mon": "02",
		"mday": "04",
		"hour": "18",
		"min": "15",
		"tzname": "America/Los_Angeles"
		},
		"utcdate": {
		"pretty": "2:15 AM GMT on February 05, 2015",
		"year": "2015",
		"mon": "02",
		"mday": "05",
		"hour": "02",
		"min": "15",
		"tzname": "UTC"
		},
		"tempm":"15.0", "tempi":"59.0","dewptm":"10.0", "dewpti":"50.0","hum":"72","wspdm":"0.0", "wspdi":"0.0","wgustm":"-9999.0", "wgusti":"-9999.0","wdird":"0","wdire":"North","vism":"16.1", "visi":"10.0","pressurem":"1016.1", "pressurei":"30.01","windchillm":"-999", "windchilli":"-999","heatindexm":"-9999", "heatindexi":"-9999","precipm":"-9999.00", "precipi":"-9999.00","conds":"Clear","icon":"clear","fog":"0","rain":"0","snow":"0","hail":"0","thunder":"0","tornado":"0","metar":"METAR KCIC 050215Z AUTO 00000KT 10SM CLR 15/10 A3001 RMK AO1" },
		{
		"date": {
		"pretty": "6:35 PM PST on February 04, 2015",
		"year": "2015",
		"mon": "02",
		"mday": "04",
		"hour": "18",
		"min": "35",
		"tzname": "America/Los_Angeles"
		},
		"utcdate": {
		"pretty": "2:35 AM GMT on February 05, 2015",
		"year": "2015",
		"mon": "02",
		"mday": "05",
		"hour": "02",
		"min": "35",
		"tzname": "UTC"
		},
		"tempm":"14.0", "tempi":"57.2","dewptm":"11.0", "dewpti":"51.8","hum":"82","wspdm":"0.0", "wspdi":"0.0","wgustm":"-9999.0", "wgusti":"-9999.0","wdird":"0","wdire":"North","vism":"16.1", "visi":"10.0","pressurem":"1016.8", "pressurei":"30.03","windchillm":"-999", "windchilli":"-999","heatindexm":"-9999", "heatindexi":"-9999","precipm":"-9999.00", "precipi":"-9999.00","conds":"Clear","icon":"clear","fog":"0","rain":"0","snow":"0","hail":"0","thunder":"0","tornado":"0","metar":"METAR KCIC 050235Z AUTO 00000KT 10SM CLR 14/11 A3003 RMK AO1" },
		{
		"date": {
		"pretty": "6:47 PM PST on February 04, 2015",
		"year": "2015",
		"mon": "02",
		"mday": "04",
		"hour": "18",
		"min": "47",
		"tzname": "America/Los_Angeles"
		},
		"utcdate": {
		"pretty": "2:47 AM GMT on February 05, 2015",
		"year": "2015",
		"mon": "02",
		"mday": "05",
		"hour": "02",
		"min": "47",
		"tzname": "UTC"
		},
		"tempm":"14.0", "tempi":"57.2","dewptm":"11.0", "dewpti":"51.8","hum":"82","wspdm":"0.0", "wspdi":"0.0","wgustm":"-9999.0", "wgusti":"-9999.0","wdird":"0","wdire":"North","vism":"16.1", "visi":"10.0","pressurem":"1016.5", "pressurei":"30.02","windchillm":"-999", "windchilli":"-999","heatindexm":"-9999", "heatindexi":"-9999","precipm":"-9999.00", "precipi":"-9999.00","conds":"Mostly Cloudy","icon":"mostlycloudy","fog":"0","rain":"0","snow":"0","hail":"0","thunder":"0","tornado":"0","metar":"METAR KCIC 050247Z COR 00000KTKT 10SM SCT120 BKN200 14/11 A3002" },
		{
		"date": {
		"pretty": "6:55 PM PST on February 04, 2015",
		"year": "2015",
		"mon": "02",
		"mday": "04",
		"hour": "18",
		"min": "55",
		"tzname": "America/Los_Angeles"
		},
		"utcdate": {
		"pretty": "2:55 AM GMT on February 05, 2015",
		"year": "2015",
		"mon": "02",
		"mday": "05",
		"hour": "02",
		"min": "55",
		"tzname": "UTC"
		},
		"tempm":"14.0", "tempi":"57.2","dewptm":"11.0", "dewpti":"51.8","hum":"82","wspdm":"0.0", "wspdi":"0.0","wgustm":"-9999.0", "wgusti":"-9999.0","wdird":"0","wdire":"North","vism":"16.1", "visi":"10.0","pressurem":"1016.5", "pressurei":"30.02","windchillm":"-999", "windchilli":"-999","heatindexm":"-9999", "heatindexi":"-9999","precipm":"-9999.00", "precipi":"-9999.00","conds":"Clear","icon":"clear","fog":"0","rain":"0","snow":"0","hail":"0","thunder":"0","tornado":"0","metar":"METAR KCIC 050255Z AUTO 00000KT 10SM CLR 14/11 A3002 RMK AO1" },
		{
		"date": {
		"pretty": "7:15 PM PST on February 04, 2015",
		"year": "2015",
		"mon": "02",
		"mday": "04",
		"hour": "19",
		"min": "15",
		"tzname": "America/Los_Angeles"
		},
		"utcdate": {
		"pretty": "3:15 AM GMT on February 05, 2015",
		"year": "2015",
		"mon": "02",
		"mday": "05",
		"hour": "03",
		"min": "15",
		"tzname": "UTC"
		},
		"tempm":"14.0", "tempi":"57.2","dewptm":"10.0", "dewpti":"50.0","hum":"77","wspdm":"0.0", "wspdi":"0.0","wgustm":"-9999.0", "wgusti":"-9999.0","wdird":"0","wdire":"North","vism":"16.1", "visi":"10.0","pressurem":"1016.1", "pressurei":"30.01","windchillm":"-999", "windchilli":"-999","heatindexm":"-9999", "heatindexi":"-9999","precipm":"-9999.00", "precipi":"-9999.00","conds":"Clear","icon":"clear","fog":"0","rain":"0","snow":"0","hail":"0","thunder":"0","tornado":"0","metar":"METAR KCIC 050315Z AUTO 00000KT 10SM CLR 14/10 A3001 RMK AO1" },
		{
		"date": {
		"pretty": "7:35 PM PST on February 04, 2015",
		"year": "2015",
		"mon": "02",
		"mday": "04",
		"hour": "19",
		"min": "35",
		"tzname": "America/Los_Angeles"
		},
		"utcdate": {
		"pretty": "3:35 AM GMT on February 05, 2015",
		"year": "2015",
		"mon": "02",
		"mday": "05",
		"hour": "03",
		"min": "35",
		"tzname": "UTC"
		},
		"tempm":"13.0", "tempi":"55.4","dewptm":"9.0", "dewpti":"48.2","hum":"77","wspdm":"9.3", "wspdi":"5.8","wgustm":"-9999.0", "wgusti":"-9999.0","wdird":"140","wdire":"SE","vism":"16.1", "visi":"10.0","pressurem":"1016.1", "pressurei":"30.01","windchillm":"-999", "windchilli":"-999","heatindexm":"-9999", "heatindexi":"-9999","precipm":"-9999.00", "precipi":"-9999.00","conds":"Clear","icon":"clear","fog":"0","rain":"0","snow":"0","hail":"0","thunder":"0","tornado":"0","metar":"METAR KCIC 050335Z AUTO 14005KT 10SM CLR 13/09 A3001 RMK AO1" },
		{
		"date": {
		"pretty": "7:55 PM PST on February 04, 2015",
		"year": "2015",
		"mon": "02",
		"mday": "04",
		"hour": "19",
		"min": "55",
		"tzname": "America/Los_Angeles"
		},
		"utcdate": {
		"pretty": "3:55 AM GMT on February 05, 2015",
		"year": "2015",
		"mon": "02",
		"mday": "05",
		"hour": "03",
		"min": "55",
		"tzname": "UTC"
		},
		"tempm":"11.0", "tempi":"51.8","dewptm":"9.0", "dewpti":"48.2","hum":"88","wspdm":"7.4", "wspdi":"4.6","wgustm":"-9999.0", "wgusti":"-9999.0","wdird":"180","wdire":"South","vism":"16.1", "visi":"10.0","pressurem":"1016.1", "pressurei":"30.01","windchillm":"-999", "windchilli":"-999","heatindexm":"-9999", "heatindexi":"-9999","precipm":"-9999.00", "precipi":"-9999.00","conds":"Clear","icon":"clear","fog":"0","rain":"0","snow":"0","hail":"0","thunder":"0","tornado":"0","metar":"METAR KCIC 050355Z AUTO 18004KT 10SM CLR 11/09 A3001 RMK AO1" },
		{
		"date": {
		"pretty": "8:15 PM PST on February 04, 2015",
		"year": "2015",
		"mon": "02",
		"mday": "04",
		"hour": "20",
		"min": "15",
		"tzname": "America/Los_Angeles"
		},
		"utcdate": {
		"pretty": "4:15 AM GMT on February 05, 2015",
		"year": "2015",
		"mon": "02",
		"mday": "05",
		"hour": "04",
		"min": "15",
		"tzname": "UTC"
		},
		"tempm":"12.0", "tempi":"53.6","dewptm":"10.0", "dewpti":"50.0","hum":"88","wspdm":"0.0", "wspdi":"0.0","wgustm":"-9999.0", "wgusti":"-9999.0","wdird":"0","wdire":"North","vism":"16.1", "visi":"10.0","pressurem":"1016.5", "pressurei":"30.02","windchillm":"-999", "windchilli":"-999","heatindexm":"-9999", "heatindexi":"-9999","precipm":"-9999.00", "precipi":"-9999.00","conds":"Clear","icon":"clear","fog":"0","rain":"0","snow":"0","hail":"0","thunder":"0","tornado":"0","metar":"METAR KCIC 050415Z AUTO 00000KT 10SM CLR 12/10 A3002 RMK AO1" },
		{
		"date": {
		"pretty": "8:35 PM PST on February 04, 2015",
		"year": "2015",
		"mon": "02",
		"mday": "04",
		"hour": "20",
		"min": "35",
		"tzname": "America/Los_Angeles"
		},
		"utcdate": {
		"pretty": "4:35 AM GMT on February 05, 2015",
		"year": "2015",
		"mon": "02",
		"mday": "05",
		"hour": "04",
		"min": "35",
		"tzname": "UTC"
		},
		"tempm":"11.0", "tempi":"51.8","dewptm":"9.0", "dewpti":"48.2","hum":"88","wspdm":"9.3", "wspdi":"5.8","wgustm":"-9999.0", "wgusti":"-9999.0","wdird":"60","wdire":"ENE","vism":"16.1", "visi":"10.0","pressurem":"1016.5", "pressurei":"30.02","windchillm":"-999", "windchilli":"-999","heatindexm":"-9999", "heatindexi":"-9999","precipm":"-9999.00", "precipi":"-9999.00","conds":"Clear","icon":"clear","fog":"0","rain":"0","snow":"0","hail":"0","thunder":"0","tornado":"0","metar":"METAR KCIC 050435Z AUTO 06005KT 10SM CLR 11/09 A3002 RMK AO1" },
		{
		"date": {
		"pretty": "8:55 PM PST on February 04, 2015",
		"year": "2015",
		"mon": "02",
		"mday": "04",
		"hour": "20",
		"min": "55",
		"tzname": "America/Los_Angeles"
		},
		"utcdate": {
		"pretty": "4:55 AM GMT on February 05, 2015",
		"year": "2015",
		"mon": "02",
		"mday": "05",
		"hour": "04",
		"min": "55",
		"tzname": "UTC"
		},
		"tempm":"10.0", "tempi":"50.0","dewptm":"9.0", "dewpti":"48.2","hum":"94","wspdm":"5.6", "wspdi":"3.5","wgustm":"-9999.0", "wgusti":"-9999.0","wdird":"70","wdire":"ENE","vism":"16.1", "visi":"10.0","pressurem":"1016.5", "pressurei":"30.02","windchillm":"-999", "windchilli":"-999","heatindexm":"-9999", "heatindexi":"-9999","precipm":"-9999.00", "precipi":"-9999.00","conds":"Clear","icon":"clear","fog":"0","rain":"0","snow":"0","hail":"0","thunder":"0","tornado":"0","metar":"METAR KCIC 050455Z AUTO 07003KT 10SM CLR 10/09 A3002 RMK AO1" },
		{
		"date": {
		"pretty": "9:15 PM PST on February 04, 2015",
		"year": "2015",
		"mon": "02",
		"mday": "04",
		"hour": "21",
		"min": "15",
		"tzname": "America/Los_Angeles"
		},
		"utcdate": {
		"pretty": "5:15 AM GMT on February 05, 2015",
		"year": "2015",
		"mon": "02",
		"mday": "05",
		"hour": "05",
		"min": "15",
		"tzname": "UTC"
		},
		"tempm":"10.0", "tempi":"50.0","dewptm":"8.0", "dewpti":"46.4","hum":"87","wspdm":"0.0", "wspdi":"0.0","wgustm":"-9999.0", "wgusti":"-9999.0","wdird":"0","wdire":"North","vism":"16.1", "visi":"10.0","pressurem":"1016.1", "pressurei":"30.01","windchillm":"-999", "windchilli":"-999","heatindexm":"-9999", "heatindexi":"-9999","precipm":"-9999.00", "precipi":"-9999.00","conds":"Clear","icon":"clear","fog":"0","rain":"0","snow":"0","hail":"0","thunder":"0","tornado":"0","metar":"METAR KCIC 050515Z AUTO 00000KT 10SM CLR 10/08 A3001 RMK AO1" },
		{
		"date": {
		"pretty": "9:35 PM PST on February 04, 2015",
		"year": "2015",
		"mon": "02",
		"mday": "04",
		"hour": "21",
		"min": "35",
		"tzname": "America/Los_Angeles"
		},
		"utcdate": {
		"pretty": "5:35 AM GMT on February 05, 2015",
		"year": "2015",
		"mon": "02",
		"mday": "05",
		"hour": "05",
		"min": "35",
		"tzname": "UTC"
		},
		"tempm":"10.0", "tempi":"50.0","dewptm":"8.0", "dewpti":"46.4","hum":"87","wspdm":"0.0", "wspdi":"0.0","wgustm":"-9999.0", "wgusti":"-9999.0","wdird":"0","wdire":"North","vism":"16.1", "visi":"10.0","pressurem":"1016.1", "pressurei":"30.01","windchillm":"-999", "windchilli":"-999","heatindexm":"-9999", "heatindexi":"-9999","precipm":"-9999.00", "precipi":"-9999.00","conds":"Clear","icon":"clear","fog":"0","rain":"0","snow":"0","hail":"0","thunder":"0","tornado":"0","metar":"METAR KCIC 050535Z AUTO 00000KT 10SM CLR 10/08 A3001 RMK AO1" },
		{
		"date": {
		"pretty": "9:55 PM PST on February 04, 2015",
		"year": "2015",
		"mon": "02",
		"mday": "04",
		"hour": "21",
		"min": "55",
		"tzname": "America/Los_Angeles"
		},
		"utcdate": {
		"pretty": "5:55 AM GMT on February 05, 2015",
		"year": "2015",
		"mon": "02",
		"mday": "05",
		"hour": "05",
		"min": "55",
		"tzname": "UTC"
		},
		"tempm":"9.0", "tempi":"48.2","dewptm":"7.0", "dewpti":"44.6","hum":"87","wspdm":"0.0", "wspdi":"0.0","wgustm":"-9999.0", "wgusti":"-9999.0","wdird":"0","wdire":"North","vism":"16.1", "visi":"10.0","pressurem":"1016.1", "pressurei":"30.01","windchillm":"-999", "windchilli":"-999","heatindexm":"-9999", "heatindexi":"-9999","precipm":"-9999.00", "precipi":"-9999.00","conds":"Clear","icon":"clear","fog":"0","rain":"0","snow":"0","hail":"0","thunder":"0","tornado":"0","metar":"METAR KCIC 050555Z AUTO 00000KT 10SM CLR 09/07 A3001 RMK AO1" },
		{
		"date": {
		"pretty": "10:15 PM PST on February 04, 2015",
		"year": "2015",
		"mon": "02",
		"mday": "04",
		"hour": "22",
		"min": "15",
		"tzname": "America/Los_Angeles"
		},
		"utcdate": {
		"pretty": "6:15 AM GMT on February 05, 2015",
		"year": "2015",
		"mon": "02",
		"mday": "05",
		"hour": "06",
		"min": "15",
		"tzname": "UTC"
		},
		"tempm":"8.0", "tempi":"46.4","dewptm":"7.0", "dewpti":"44.6","hum":"93","wspdm":"9.3", "wspdi":"5.8","wgustm":"-9999.0", "wgusti":"-9999.0","wdird":"330","wdire":"NNW","vism":"16.1", "visi":"10.0","pressurem":"1016.5", "pressurei":"30.02","windchillm":"6.4", "windchilli":"43.5","heatindexm":"-9999", "heatindexi":"-9999","precipm":"-9999.00", "precipi":"-9999.00","conds":"Clear","icon":"clear","fog":"0","rain":"0","snow":"0","hail":"0","thunder":"0","tornado":"0","metar":"METAR KCIC 050615Z AUTO 33005KT 10SM CLR 08/07 A3002 RMK AO1" },
		{
		"date": {
		"pretty": "10:35 PM PST on February 04, 2015",
		"year": "2015",
		"mon": "02",
		"mday": "04",
		"hour": "22",
		"min": "35",
		"tzname": "America/Los_Angeles"
		},
		"utcdate": {
		"pretty": "6:35 AM GMT on February 05, 2015",
		"year": "2015",
		"mon": "02",
		"mday": "05",
		"hour": "06",
		"min": "35",
		"tzname": "UTC"
		},
		"tempm":"10.0", "tempi":"50.0","dewptm":"7.0", "dewpti":"44.6","hum":"82","wspdm":"11.1", "wspdi":"6.9","wgustm":"-9999.0", "wgusti":"-9999.0","wdird":"60","wdire":"ENE","vism":"16.1", "visi":"10.0","pressurem":"1016.1", "pressurei":"30.01","windchillm":"-999", "windchilli":"-999","heatindexm":"-9999", "heatindexi":"-9999","precipm":"-9999.00", "precipi":"-9999.00","conds":"Clear","icon":"clear","fog":"0","rain":"0","snow":"0","hail":"0","thunder":"0","tornado":"0","metar":"METAR KCIC 050635Z AUTO 06006KT 10SM CLR 10/07 A3001 RMK AO1" },
		{
		"date": {
		"pretty": "10:55 PM PST on February 04, 2015",
		"year": "2015",
		"mon": "02",
		"mday": "04",
		"hour": "22",
		"min": "55",
		"tzname": "America/Los_Angeles"
		},
		"utcdate": {
		"pretty": "6:55 AM GMT on February 05, 2015",
		"year": "2015",
		"mon": "02",
		"mday": "05",
		"hour": "06",
		"min": "55",
		"tzname": "UTC"
		},
		"tempm":"9.0", "tempi":"48.2","dewptm":"8.0", "dewpti":"46.4","hum":"93","wspdm":"5.6", "wspdi":"3.5","wgustm":"-9999.0", "wgusti":"-9999.0","wdird":"100","wdire":"East","vism":"16.1", "visi":"10.0","pressurem":"1015.8", "pressurei":"30.00","windchillm":"-999", "windchilli":"-999","heatindexm":"-9999", "heatindexi":"-9999","precipm":"-9999.00", "precipi":"-9999.00","conds":"Partly Cloudy","icon":"partlycloudy","fog":"0","rain":"0","snow":"0","hail":"0","thunder":"0","tornado":"0","metar":"METAR KCIC 050655Z AUTO 10003KT 10SM FEW034 09/08 A3000 RMK AO1" },
		{
		"date": {
		"pretty": "11:15 PM PST on February 04, 2015",
		"year": "2015",
		"mon": "02",
		"mday": "04",
		"hour": "23",
		"min": "15",
		"tzname": "America/Los_Angeles"
		},
		"utcdate": {
		"pretty": "7:15 AM GMT on February 05, 2015",
		"year": "2015",
		"mon": "02",
		"mday": "05",
		"hour": "07",
		"min": "15",
		"tzname": "UTC"
		},
		"tempm":"9.0", "tempi":"48.2","dewptm":"8.0", "dewpti":"46.4","hum":"93","wspdm":"7.4", "wspdi":"4.6","wgustm":"-9999.0", "wgusti":"-9999.0","wdird":"110","wdire":"ESE","vism":"16.1", "visi":"10.0","pressurem":"1015.8", "pressurei":"30.00","windchillm":"-999", "windchilli":"-999","heatindexm":"-9999", "heatindexi":"-9999","precipm":"-9999.00", "precipi":"-9999.00","conds":"Scattered Clouds","icon":"partlycloudy","fog":"0","rain":"0","snow":"0","hail":"0","thunder":"0","tornado":"0","metar":"METAR KCIC 050715Z AUTO 11004KT 10SM SCT034 SCT039 09/08 A3000 RMK AO1" },
		{
		"date": {
		"pretty": "11:35 PM PST on February 04, 2015",
		"year": "2015",
		"mon": "02",
		"mday": "04",
		"hour": "23",
		"min": "35",
		"tzname": "America/Los_Angeles"
		},
		"utcdate": {
		"pretty": "7:35 AM GMT on February 05, 2015",
		"year": "2015",
		"mon": "02",
		"mday": "05",
		"hour": "07",
		"min": "35",
		"tzname": "UTC"
		},
		"tempm":"9.0", "tempi":"48.2","dewptm":"7.0", "dewpti":"44.6","hum":"87","wspdm":"0.0", "wspdi":"0.0","wgustm":"-9999.0", "wgusti":"-9999.0","wdird":"0","wdire":"North","vism":"16.1", "visi":"10.0","pressurem":"1015.8", "pressurei":"30.00","windchillm":"-999", "windchilli":"-999","heatindexm":"-9999", "heatindexi":"-9999","precipm":"-9999.00", "precipi":"-9999.00","conds":"Scattered Clouds","icon":"partlycloudy","fog":"0","rain":"0","snow":"0","hail":"0","thunder":"0","tornado":"0","metar":"METAR KCIC 050735Z AUTO 00000KT 10SM FEW025 SCT033 09/07 A3000 RMK AO1" },
		{
		"date": {
		"pretty": "11:55 PM PST on February 04, 2015",
		"year": "2015",
		"mon": "02",
		"mday": "04",
		"hour": "23",
		"min": "55",
		"tzname": "America/Los_Angeles"
		},
		"utcdate": {
		"pretty": "7:55 AM GMT on February 05, 2015",
		"year": "2015",
		"mon": "02",
		"mday": "05",
		"hour": "07",
		"min": "55",
		"tzname": "UTC"
		},
		"tempm":"9.0", "tempi":"48.2","dewptm":"7.0", "dewpti":"44.6","hum":"87","wspdm":"0.0", "wspdi":"0.0","wgustm":"-9999.0", "wgusti":"-9999.0","wdird":"0","wdire":"North","vism":"16.1", "visi":"10.0","pressurem":"1016.1", "pressurei":"30.01","windchillm":"-999", "windchilli":"-999","heatindexm":"-9999", "heatindexi":"-9999","precipm":"-9999.00", "precipi":"-9999.00","conds":"Partly Cloudy","icon":"partlycloudy","fog":"0","rain":"0","snow":"0","hail":"0","thunder":"0","tornado":"0","metar":"METAR KCIC 050755Z AUTO 00000KT 10SM FEW033 09/07 A3001 RMK AO1" }
		],
		"dailysummary": [
		{ "date": {
		"pretty": "12:00 PM PST on February 04, 2015",
		"year": "2015",
		"mon": "02",
		"mday": "04",
		"hour": "12",
		"min": "00",
		"tzname": "America/Los_Angeles"
		},
		"fog":"1","rain":"0","snow":"0","snowfallm":"0.00", "snowfalli":"0.00","monthtodatesnowfallm":"", "monthtodatesnowfalli":"","since1julsnowfallm":"", "since1julsnowfalli":"","snowdepthm":"", "snowdepthi":"","hail":"0","thunder":"0","tornado":"0","meantempm":"12", "meantempi":"53","meandewptm":"9", "meandewpti":"48","meanpressurem":"1017", "meanpressurei":"30.05","meanwindspdm":"3", "meanwindspdi":"2","meanwdire":"","meanwdird":"99","meanvism":"15", "meanvisi":"10","humidity":"","maxtempm":"18", "maxtempi":"64","mintempm":"6", "mintempi":"42","maxhumidity":"100","minhumidity":"56","maxdewptm":"11", "maxdewpti":"52","mindewptm":"6", "mindewpti":"43","maxpressurem":"1020", "maxpressurei":"30.12","minpressurem":"1016", "minpressurei":"30.00","maxwspdm":"16", "maxwspdi":"10","minwspdm":"0", "minwspdi":"0","maxvism":"16", "maxvisi":"10","minvism":"3", "minvisi":"2","gdegreedays":"3","heatingdegreedays":"12","coolingdegreedays":"0","precipm":"0.00", "precipi":"0.00","precipsource":"","heatingdegreedaysnormal":"","monthtodateheatingdegreedays":"","monthtodateheatingdegreedaysnormal":"","since1sepheatingdegreedays":"","since1sepheatingdegreedaysnormal":"","since1julheatingdegreedays":"","since1julheatingdegreedaysnormal":"","coolingdegreedaysnormal":"","monthtodatecoolingdegreedays":"","monthtodatecoolingdegreedaysnormal":"","since1sepcoolingdegreedays":"","since1sepcoolingdegreedaysnormal":"","since1jancoolingdegreedays":"","since1jancoolingdegreedaysnormal":"" }
		]
	}
}