
{
  "response": {
  "version":"0.1",
  "termsofService":"http://www.wunderground.com/weather/api/d/terms.html",
  "features": {
  "history": 1
  }
	}
		,
	"history": {
		"date": {
		"pretty": "February 9, 2015",
		"year": "2015",
		"mon": "02",
		"mday": "09",
		"hour": "12",
		"min": "00",
		"tzname": "America/Los_Angeles"
		},
		"utcdate": {
		"pretty": "February 9, 2015",
		"year": "2015",
		"mon": "02",
		"mday": "09",
		"hour": "20",
		"min": "00",
		"tzname": "UTC"
		},
		"observations": [
		{
		"date": {
		"pretty": "12:15 AM PST on February 09, 2015",
		"year": "2015",
		"mon": "02",
		"mday": "09",
		"hour": "00",
		"min": "15",
		"tzname": "America/Los_Angeles"
		},
		"utcdate": {
		"pretty": "8:15 AM GMT on February 09, 2015",
		"year": "2015",
		"mon": "02",
		"mday": "09",
		"hour": "08",
		"min": "15",
		"tzname": "UTC"
		},
		"tempm":"14.0", "tempi":"57.2","dewptm":"12.0", "dewpti":"53.6","hum":"88","wspdm":"44.4", "wspdi":"27.6","wgustm":"57.4", "wgusti":"35.7","wdird":"150","wdire":"SSE","vism":"16.1", "visi":"10.0","pressurem":"1012.1", "pressurei":"29.89","windchillm":"-999", "windchilli":"-999","heatindexm":"-9999", "heatindexi":"-9999","precipm":"-9999.00", "precipi":"-9999.00","conds":"Scattered Clouds","icon":"partlycloudy","fog":"0","rain":"0","snow":"0","hail":"0","thunder":"0","tornado":"0","metar":"METAR KCIC 090815Z AUTO 15024G31KT 10SM FEW036 SCT046 14/12 A2989 RMK AO1" },
		{
		"date": {
		"pretty": "12:35 AM PST on February 09, 2015",
		"year": "2015",
		"mon": "02",
		"mday": "09",
		"hour": "00",
		"min": "35",
		"tzname": "America/Los_Angeles"
		},
		"utcdate": {
		"pretty": "8:35 AM GMT on February 09, 2015",
		"year": "2015",
		"mon": "02",
		"mday": "09",
		"hour": "08",
		"min": "35",
		"tzname": "UTC"
		},
		"tempm":"14.0", "tempi":"57.2","dewptm":"12.0", "dewpti":"53.6","hum":"88","wspdm":"40.7", "wspdi":"25.3","wgustm":"53.7", "wgusti":"33.4","wdird":"150","wdire":"SSE","vism":"16.1", "visi":"10.0","pressurem":"1012.8", "pressurei":"29.91","windchillm":"-999", "windchilli":"-999","heatindexm":"-9999", "heatindexi":"-9999","precipm":"-9999.00", "precipi":"-9999.00","conds":"Clear","icon":"clear","fog":"0","rain":"0","snow":"0","hail":"0","thunder":"0","tornado":"0","metar":"METAR KCIC 090835Z AUTO 15022G29KT 10SM CLR 14/12 A2991 RMK AO1" },
		{
		"date": {
		"pretty": "12:55 AM PST on February 09, 2015",
		"year": "2015",
		"mon": "02",
		"mday": "09",
		"hour": "00",
		"min": "55",
		"tzname": "America/Los_Angeles"
		},
		"utcdate": {
		"pretty": "8:55 AM GMT on February 09, 2015",
		"year": "2015",
		"mon": "02",
		"mday": "09",
		"hour": "08",
		"min": "55",
		"tzname": "UTC"
		},
		"tempm":"14.0", "tempi":"57.2","dewptm":"12.0", "dewpti":"53.6","hum":"88","wspdm":"40.7", "wspdi":"25.3","wgustm":"51.9", "wgusti":"32.2","wdird":"140","wdire":"SE","vism":"16.1", "visi":"10.0","pressurem":"1013.1", "pressurei":"29.92","windchillm":"-999", "windchilli":"-999","heatindexm":"-9999", "heatindexi":"-9999","precipm":"-9999.00", "precipi":"-9999.00","conds":"Mostly Cloudy","icon":"mostlycloudy","fog":"0","rain":"0","snow":"0","hail":"0","thunder":"0","tornado":"0","metar":"METAR KCIC 090855Z AUTO 14022G28KT 10SM FEW080 BKN110 14/12 A2992 RMK AO1" },
		{
		"date": {
		"pretty": "1:15 AM PST on February 09, 2015",
		"year": "2015",
		"mon": "02",
		"mday": "09",
		"hour": "01",
		"min": "15",
		"tzname": "America/Los_Angeles"
		},
		"utcdate": {
		"pretty": "9:15 AM GMT on February 09, 2015",
		"year": "2015",
		"mon": "02",
		"mday": "09",
		"hour": "09",
		"min": "15",
		"tzname": "UTC"
		},
		"tempm":"14.0", "tempi":"57.2","dewptm":"12.0", "dewpti":"53.6","hum":"88","wspdm":"40.7", "wspdi":"25.3","wgustm":"51.9", "wgusti":"32.2","wdird":"150","wdire":"SSE","vism":"16.1", "visi":"10.0","pressurem":"1013.4", "pressurei":"29.93","windchillm":"-999", "windchilli":"-999","heatindexm":"-9999", "heatindexi":"-9999","precipm":"-9999.00", "precipi":"-9999.00","conds":"Mostly Cloudy","icon":"mostlycloudy","fog":"0","rain":"0","snow":"0","hail":"0","thunder":"0","tornado":"0","metar":"METAR KCIC 090915Z AUTO 15022G28KT 10SM FEW044 SCT055 BKN080 14/12 A2993 RMK AO1" },
		{
		"date": {
		"pretty": "1:35 AM PST on February 09, 2015",
		"year": "2015",
		"mon": "02",
		"mday": "09",
		"hour": "01",
		"min": "35",
		"tzname": "America/Los_Angeles"
		},
		"utcdate": {
		"pretty": "9:35 AM GMT on February 09, 2015",
		"year": "2015",
		"mon": "02",
		"mday": "09",
		"hour": "09",
		"min": "35",
		"tzname": "UTC"
		},
		"tempm":"14.0", "tempi":"57.2","dewptm":"12.0", "dewpti":"53.6","hum":"88","wspdm":"46.3", "wspdi":"28.8","wgustm":"53.7", "wgusti":"33.4","wdird":"150","wdire":"SSE","vism":"16.1", "visi":"10.0","pressurem":"1013.4", "pressurei":"29.93","windchillm":"-999", "windchilli":"-999","heatindexm":"-9999", "heatindexi":"-9999","precipm":"-9999.00", "precipi":"-9999.00","conds":"Overcast","icon":"cloudy","fog":"0","rain":"0","snow":"0","hail":"0","thunder":"0","tornado":"0","metar":"METAR KCIC 090935Z AUTO 15025G29KT 10SM FEW044 BKN055 OVC090 14/12 A2993 RMK AO1" },
		{
		"date": {
		"pretty": "1:55 AM PST on February 09, 2015",
		"year": "2015",
		"mon": "02",
		"mday": "09",
		"hour": "01",
		"min": "55",
		"tzname": "America/Los_Angeles"
		},
		"utcdate": {
		"pretty": "9:55 AM GMT on February 09, 2015",
		"year": "2015",
		"mon": "02",
		"mday": "09",
		"hour": "09",
		"min": "55",
		"tzname": "UTC"
		},
		"tempm":"14.0", "tempi":"57.2","dewptm":"12.0", "dewpti":"53.6","hum":"88","wspdm":"38.9", "wspdi":"24.2","wgustm":"50.0", "wgusti":"31.1","wdird":"140","wdire":"SE","vism":"16.1", "visi":"10.0","pressurem":"1013.8", "pressurei":"29.94","windchillm":"-999", "windchilli":"-999","heatindexm":"-9999", "heatindexi":"-9999","precipm":"-9999.00", "precipi":"-9999.00","conds":"Overcast","icon":"cloudy","fog":"0","rain":"0","snow":"0","hail":"0","thunder":"0","tornado":"0","metar":"METAR KCIC 090955Z AUTO 14021G27KT 10SM SCT038 BKN048 OVC070 14/12 A2994 RMK AO1" },
		{
		"date": {
		"pretty": "2:15 AM PST on February 09, 2015",
		"year": "2015",
		"mon": "02",
		"mday": "09",
		"hour": "02",
		"min": "15",
		"tzname": "America/Los_Angeles"
		},
		"utcdate": {
		"pretty": "10:15 AM GMT on February 09, 2015",
		"year": "2015",
		"mon": "02",
		"mday": "09",
		"hour": "10",
		"min": "15",
		"tzname": "UTC"
		},
		"tempm":"14.0", "tempi":"57.2","dewptm":"12.0", "dewpti":"53.6","hum":"88","wspdm":"46.3", "wspdi":"28.8","wgustm":"55.6", "wgusti":"34.5","wdird":"150","wdire":"SSE","vism":"16.1", "visi":"10.0","pressurem":"1014.1", "pressurei":"29.95","windchillm":"-999", "windchilli":"-999","heatindexm":"-9999", "heatindexi":"-9999","precipm":"-9999.00", "precipi":"-9999.00","conds":"Overcast","icon":"cloudy","fog":"0","rain":"0","snow":"0","hail":"0","thunder":"0","tornado":"0","metar":"METAR KCIC 091015Z AUTO 15025G30KT 10SM FEW040 BKN060 OVC070 14/12 A2995 RMK AO1" },
		{
		"date": {
		"pretty": "2:35 AM PST on February 09, 2015",
		"year": "2015",
		"mon": "02",
		"mday": "09",
		"hour": "02",
		"min": "35",
		"tzname": "America/Los_Angeles"
		},
		"utcdate": {
		"pretty": "10:35 AM GMT on February 09, 2015",
		"year": "2015",
		"mon": "02",
		"mday": "09",
		"hour": "10",
		"min": "35",
		"tzname": "UTC"
		},
		"tempm":"14.0", "tempi":"57.2","dewptm":"12.0", "dewpti":"53.6","hum":"88","wspdm":"48.2", "wspdi":"29.9","wgustm":"61.1", "wgusti":"38.0","wdird":"140","wdire":"SE","vism":"16.1", "visi":"10.0","pressurem":"1014.4", "pressurei":"29.96","windchillm":"-999", "windchilli":"-999","heatindexm":"-9999", "heatindexi":"-9999","precipm":"-9999.00", "precipi":"-9999.00","conds":"Overcast","icon":"cloudy","fog":"0","rain":"0","snow":"0","hail":"0","thunder":"0","tornado":"0","metar":"METAR KCIC 091035Z AUTO 14026G33KT 10SM BKN060 BKN080 OVC100 14/12 A2996 RMK AO1" },
		{
		"date": {
		"pretty": "2:55 AM PST on February 09, 2015",
		"year": "2015",
		"mon": "02",
		"mday": "09",
		"hour": "02",
		"min": "55",
		"tzname": "America/Los_Angeles"
		},
		"utcdate": {
		"pretty": "10:55 AM GMT on February 09, 2015",
		"year": "2015",
		"mon": "02",
		"mday": "09",
		"hour": "10",
		"min": "55",
		"tzname": "UTC"
		},
		"tempm":"13.0", "tempi":"55.4","dewptm":"12.0", "dewpti":"53.6","hum":"94","wspdm":"42.6", "wspdi":"26.5","wgustm":"59.3", "wgusti":"36.8","wdird":"140","wdire":"SE","vism":"16.1", "visi":"10.0","pressurem":"1015.1", "pressurei":"29.98","windchillm":"-999", "windchilli":"-999","heatindexm":"-9999", "heatindexi":"-9999","precipm":"-9999.00", "precipi":"-9999.00","conds":"Overcast","icon":"cloudy","fog":"0","rain":"0","snow":"0","hail":"0","thunder":"0","tornado":"0","metar":"METAR KCIC 091055Z AUTO 14023G32KT 10SM FEW014 SCT060 OVC085 13/12 A2998 RMK AO1" },
		{
		"date": {
		"pretty": "3:15 AM PST on February 09, 2015",
		"year": "2015",
		"mon": "02",
		"mday": "09",
		"hour": "03",
		"min": "15",
		"tzname": "America/Los_Angeles"
		},
		"utcdate": {
		"pretty": "11:15 AM GMT on February 09, 2015",
		"year": "2015",
		"mon": "02",
		"mday": "09",
		"hour": "11",
		"min": "15",
		"tzname": "UTC"
		},
		"tempm":"13.0", "tempi":"55.4","dewptm":"12.0", "dewpti":"53.6","hum":"94","wspdm":"35.2", "wspdi":"21.9","wgustm":"57.4", "wgusti":"35.7","wdird":"140","wdire":"SE","vism":"16.1", "visi":"10.0","pressurem":"1014.8", "pressurei":"29.97","windchillm":"-999", "windchilli":"-999","heatindexm":"-9999", "heatindexi":"-9999","precipm":"-9999.00", "precipi":"-9999.00","conds":"Overcast","icon":"cloudy","fog":"0","rain":"0","snow":"0","hail":"0","thunder":"0","tornado":"0","metar":"METAR KCIC 091115Z AUTO 14019G31KT 10SM SCT014 BKN050 OVC110 13/12 A2997 RMK AO1" },
		{
		"date": {
		"pretty": "3:35 AM PST on February 09, 2015",
		"year": "2015",
		"mon": "02",
		"mday": "09",
		"hour": "03",
		"min": "35",
		"tzname": "America/Los_Angeles"
		},
		"utcdate": {
		"pretty": "11:35 AM GMT on February 09, 2015",
		"year": "2015",
		"mon": "02",
		"mday": "09",
		"hour": "11",
		"min": "35",
		"tzname": "UTC"
		},
		"tempm":"13.0", "tempi":"55.4","dewptm":"12.0", "dewpti":"53.6","hum":"94","wspdm":"37.0", "wspdi":"23.0","wgustm":"51.9", "wgusti":"32.2","wdird":"140","wdire":"SE","vism":"16.1", "visi":"10.0","pressurem":"1015.1", "pressurei":"29.98","windchillm":"-999", "windchilli":"-999","heatindexm":"-9999", "heatindexi":"-9999","precipm":"-9999.00", "precipi":"-9999.00","conds":"Mostly Cloudy","icon":"mostlycloudy","fog":"0","rain":"0","snow":"0","hail":"0","thunder":"0","tornado":"0","metar":"METAR KCIC 091135Z AUTO 14020G28KT 10SM BKN012 BKN110 13/12 A2998 RMK AO1" },
		{
		"date": {
		"pretty": "3:55 AM PST on February 09, 2015",
		"year": "2015",
		"mon": "02",
		"mday": "09",
		"hour": "03",
		"min": "55",
		"tzname": "America/Los_Angeles"
		},
		"utcdate": {
		"pretty": "11:55 AM GMT on February 09, 2015",
		"year": "2015",
		"mon": "02",
		"mday": "09",
		"hour": "11",
		"min": "55",
		"tzname": "UTC"
		},
		"tempm":"13.0", "tempi":"55.4","dewptm":"13.0", "dewpti":"55.4","hum":"100","wspdm":"37.0", "wspdi":"23.0","wgustm":"46.3", "wgusti":"28.8","wdird":"140","wdire":"SE","vism":"16.1", "visi":"10.0","pressurem":"1015.5", "pressurei":"29.99","windchillm":"-999", "windchilli":"-999","heatindexm":"-9999", "heatindexi":"-9999","precipm":"-9999.00", "precipi":"-9999.00","conds":"Mostly Cloudy","icon":"mostlycloudy","fog":"0","rain":"0","snow":"0","hail":"0","thunder":"0","tornado":"0","metar":"METAR KCIC 091155Z AUTO 14020G25KT 10SM BKN009 BKN012 13/13 A2999 RMK AO1" },
		{
		"date": {
		"pretty": "4:15 AM PST on February 09, 2015",
		"year": "2015",
		"mon": "02",
		"mday": "09",
		"hour": "04",
		"min": "15",
		"tzname": "America/Los_Angeles"
		},
		"utcdate": {
		"pretty": "12:15 PM GMT on February 09, 2015",
		"year": "2015",
		"mon": "02",
		"mday": "09",
		"hour": "12",
		"min": "15",
		"tzname": "UTC"
		},
		"tempm":"13.0", "tempi":"55.4","dewptm":"12.0", "dewpti":"53.6","hum":"94","wspdm":"35.2", "wspdi":"21.9","wgustm":"-9999.0", "wgusti":"-9999.0","wdird":"140","wdire":"SE","vism":"16.1", "visi":"10.0","pressurem":"1015.8", "pressurei":"30.00","windchillm":"-999", "windchilli":"-999","heatindexm":"-9999", "heatindexi":"-9999","precipm":"-9999.00", "precipi":"-9999.00","conds":"Scattered Clouds","icon":"partlycloudy","fog":"0","rain":"0","snow":"0","hail":"0","thunder":"0","tornado":"0","metar":"METAR KCIC 091215Z AUTO 14019KT 10SM FEW010 SCT013 SCT060 13/12 A3000 RMK AO1" },
		{
		"date": {
		"pretty": "4:35 AM PST on February 09, 2015",
		"year": "2015",
		"mon": "02",
		"mday": "09",
		"hour": "04",
		"min": "35",
		"tzname": "America/Los_Angeles"
		},
		"utcdate": {
		"pretty": "12:35 PM GMT on February 09, 2015",
		"year": "2015",
		"mon": "02",
		"mday": "09",
		"hour": "12",
		"min": "35",
		"tzname": "UTC"
		},
		"tempm":"13.0", "tempi":"55.4","dewptm":"12.0", "dewpti":"53.6","hum":"94","wspdm":"40.7", "wspdi":"25.3","wgustm":"50.0", "wgusti":"31.1","wdird":"150","wdire":"SSE","vism":"16.1", "visi":"10.0","pressurem":"1016.1", "pressurei":"30.01","windchillm":"-999", "windchilli":"-999","heatindexm":"-9999", "heatindexi":"-9999","precipm":"-9999.00", "precipi":"-9999.00","conds":"Partly Cloudy","icon":"partlycloudy","fog":"0","rain":"0","snow":"0","hail":"0","thunder":"0","tornado":"0","metar":"METAR KCIC 091235Z AUTO 15022G27KT 10SM FEW080 13/12 A3001 RMK AO1" },
		{
		"date": {
		"pretty": "4:55 AM PST on February 09, 2015",
		"year": "2015",
		"mon": "02",
		"mday": "09",
		"hour": "04",
		"min": "55",
		"tzname": "America/Los_Angeles"
		},
		"utcdate": {
		"pretty": "12:55 PM GMT on February 09, 2015",
		"year": "2015",
		"mon": "02",
		"mday": "09",
		"hour": "12",
		"min": "55",
		"tzname": "UTC"
		},
		"tempm":"13.0", "tempi":"55.4","dewptm":"12.0", "dewpti":"53.6","hum":"94","wspdm":"29.6", "wspdi":"18.4","wgustm":"44.4", "wgusti":"27.6","wdird":"140","wdire":"SE","vism":"16.1", "visi":"10.0","pressurem":"1016.8", "pressurei":"30.03","windchillm":"-999", "windchilli":"-999","heatindexm":"-9999", "heatindexi":"-9999","precipm":"-9999.00", "precipi":"-9999.00","conds":"Mostly Cloudy","icon":"mostlycloudy","fog":"0","rain":"0","snow":"0","hail":"0","thunder":"0","tornado":"0","metar":"METAR KCIC 091255Z AUTO 14016G24KT 10SM FEW043 SCT060 BKN080 13/12 A3003 RMK AO1" },
		{
		"date": {
		"pretty": "5:15 AM PST on February 09, 2015",
		"year": "2015",
		"mon": "02",
		"mday": "09",
		"hour": "05",
		"min": "15",
		"tzname": "America/Los_Angeles"
		},
		"utcdate": {
		"pretty": "1:15 PM GMT on February 09, 2015",
		"year": "2015",
		"mon": "02",
		"mday": "09",
		"hour": "13",
		"min": "15",
		"tzname": "UTC"
		},
		"tempm":"13.0", "tempi":"55.4","dewptm":"12.0", "dewpti":"53.6","hum":"94","wspdm":"31.5", "wspdi":"19.6","wgustm":"44.4", "wgusti":"27.6","wdird":"140","wdire":"SE","vism":"16.1", "visi":"10.0","pressurem":"1017.2", "pressurei":"30.04","windchillm":"-999", "windchilli":"-999","heatindexm":"-9999", "heatindexi":"-9999","precipm":"-9999.00", "precipi":"-9999.00","conds":"Mostly Cloudy","icon":"mostlycloudy","fog":"0","rain":"0","snow":"0","hail":"0","thunder":"0","tornado":"0","metar":"METAR KCIC 091315Z AUTO 14017G24KT 10SM FEW060 BKN070 13/12 A3004 RMK AO1" },
		{
		"date": {
		"pretty": "5:35 AM PST on February 09, 2015",
		"year": "2015",
		"mon": "02",
		"mday": "09",
		"hour": "05",
		"min": "35",
		"tzname": "America/Los_Angeles"
		},
		"utcdate": {
		"pretty": "1:35 PM GMT on February 09, 2015",
		"year": "2015",
		"mon": "02",
		"mday": "09",
		"hour": "13",
		"min": "35",
		"tzname": "UTC"
		},
		"tempm":"13.0", "tempi":"55.4","dewptm":"11.0", "dewpti":"51.8","hum":"88","wspdm":"38.9", "wspdi":"24.2","wgustm":"46.3", "wgusti":"28.8","wdird":"140","wdire":"SE","vism":"16.1", "visi":"10.0","pressurem":"1017.5", "pressurei":"30.05","windchillm":"-999", "windchilli":"-999","heatindexm":"-9999", "heatindexi":"-9999","precipm":"-9999.00", "precipi":"-9999.00","conds":"Partly Cloudy","icon":"partlycloudy","fog":"0","rain":"0","snow":"0","hail":"0","thunder":"0","tornado":"0","metar":"METAR KCIC 091335Z AUTO 14021G25KT 10SM FEW070 13/11 A3005 RMK AO1" },
		{
		"date": {
		"pretty": "6:50 AM PST on February 09, 2015",
		"year": "2015",
		"mon": "02",
		"mday": "09",
		"hour": "06",
		"min": "50",
		"tzname": "America/Los_Angeles"
		},
		"utcdate": {
		"pretty": "2:50 PM GMT on February 09, 2015",
		"year": "2015",
		"mon": "02",
		"mday": "09",
		"hour": "14",
		"min": "50",
		"tzname": "UTC"
		},
		"tempm":"12.0", "tempi":"53.6","dewptm":"12.0", "dewpti":"53.6","hum":"100","wspdm":"33.3", "wspdi":"20.7","wgustm":"-9999.0", "wgusti":"-9999.0","wdird":"120","wdire":"ESE","vism":"14.5", "visi":"9.0","pressurem":"1020.2", "pressurei":"30.13","windchillm":"-999", "windchilli":"-999","heatindexm":"-9999", "heatindexi":"-9999","precipm":"-9999.00", "precipi":"-9999.00","conds":"Mostly Cloudy","icon":"mostlycloudy","fog":"0","rain":"0","snow":"0","hail":"0","thunder":"0","tornado":"0","metar":"METAR KCIC 091450Z 12018KT 9SM BKN013 12/12 A3013" },
		{
		"date": {
		"pretty": "7:50 AM PST on February 09, 2015",
		"year": "2015",
		"mon": "02",
		"mday": "09",
		"hour": "07",
		"min": "50",
		"tzname": "America/Los_Angeles"
		},
		"utcdate": {
		"pretty": "3:50 PM GMT on February 09, 2015",
		"year": "2015",
		"mon": "02",
		"mday": "09",
		"hour": "15",
		"min": "50",
		"tzname": "UTC"
		},
		"tempm":"12.0", "tempi":"53.6","dewptm":"12.0", "dewpti":"53.6","hum":"100","wspdm":"29.6", "wspdi":"18.4","wgustm":"40.7", "wgusti":"25.3","wdird":"130","wdire":"SE","vism":"14.5", "visi":"9.0","pressurem":"1020.5", "pressurei":"30.14","windchillm":"-999", "windchilli":"-999","heatindexm":"-9999", "heatindexi":"-9999","precipm":"-9999.00", "precipi":"-9999.00","conds":"Mostly Cloudy","icon":"mostlycloudy","fog":"0","rain":"0","snow":"0","hail":"0","thunder":"0","tornado":"0","metar":"METAR KCIC 091550Z 13016G22 9SM SCT013 BKN050 BKN090 12/12 A3014" },
		{
		"date": {
		"pretty": "8:47 AM PST on February 09, 2015",
		"year": "2015",
		"mon": "02",
		"mday": "09",
		"hour": "08",
		"min": "47",
		"tzname": "America/Los_Angeles"
		},
		"utcdate": {
		"pretty": "4:47 PM GMT on February 09, 2015",
		"year": "2015",
		"mon": "02",
		"mday": "09",
		"hour": "16",
		"min": "47",
		"tzname": "UTC"
		},
		"tempm":"13.0", "tempi":"55.4","dewptm":"12.0", "dewpti":"53.6","hum":"94","wspdm":"-9999.0", "wspdi":"-9999.0","wgustm":"-9999.0", "wgusti":"-9999.0","wdird":"0","wdire":"North","vism":"14.5", "visi":"9.0","pressurem":"1021.6", "pressurei":"30.17","windchillm":"-999", "windchilli":"-999","heatindexm":"-9999", "heatindexi":"-9999","precipm":"-9999.00", "precipi":"-9999.00","conds":"Mostly Cloudy","icon":"mostlycloudy","fog":"0","rain":"0","snow":"0","hail":"0","thunder":"0","tornado":"0","metar":"METAR KCIC 091647Z 13016 9SM FEW013 BKN060 BKN090 13/12 A3017" },
		{
		"date": {
		"pretty": "9:47 AM PST on February 09, 2015",
		"year": "2015",
		"mon": "02",
		"mday": "09",
		"hour": "09",
		"min": "47",
		"tzname": "America/Los_Angeles"
		},
		"utcdate": {
		"pretty": "5:47 PM GMT on February 09, 2015",
		"year": "2015",
		"mon": "02",
		"mday": "09",
		"hour": "17",
		"min": "47",
		"tzname": "UTC"
		},
		"tempm":"14.0", "tempi":"57.2","dewptm":"12.0", "dewpti":"53.6","hum":"88","wspdm":"27.8", "wspdi":"17.3","wgustm":"40.7", "wgusti":"25.3","wdird":"130","wdire":"SE","vism":"14.5", "visi":"9.0","pressurem":"1021.9", "pressurei":"30.18","windchillm":"-999", "windchilli":"-999","heatindexm":"-9999", "heatindexi":"-9999","precipm":"-9999.00", "precipi":"-9999.00","conds":"Mostly Cloudy","icon":"mostlycloudy","fog":"0","rain":"0","snow":"0","hail":"0","thunder":"0","tornado":"0","metar":"METAR KCIC 091747Z 13015G22 9SM BKN014 BKN070 BKN090 14/12 A3018" },
		{
		"date": {
		"pretty": "10:47 AM PST on February 09, 2015",
		"year": "2015",
		"mon": "02",
		"mday": "09",
		"hour": "10",
		"min": "47",
		"tzname": "America/Los_Angeles"
		},
		"utcdate": {
		"pretty": "6:47 PM GMT on February 09, 2015",
		"year": "2015",
		"mon": "02",
		"mday": "09",
		"hour": "18",
		"min": "47",
		"tzname": "UTC"
		},
		"tempm":"15.0", "tempi":"59.0","dewptm":"12.0", "dewpti":"53.6","hum":"82","wspdm":"27.8", "wspdi":"17.3","wgustm":"37.0", "wgusti":"23.0","wdird":"130","wdire":"SE","vism":"14.5", "visi":"9.0","pressurem":"1026.0", "pressurei":"30.30","windchillm":"-999", "windchilli":"-999","heatindexm":"-9999", "heatindexi":"-9999","precipm":"-9999.00", "precipi":"-9999.00","conds":"Mostly Cloudy","icon":"mostlycloudy","fog":"0","rain":"0","snow":"0","hail":"0","thunder":"0","tornado":"0","metar":"METAR KCIC 091847Z 13015G20KT 9SM SCT018 BKN022 BKN040 15/12 A3030" },
		{
		"date": {
		"pretty": "11:47 AM PST on February 09, 2015",
		"year": "2015",
		"mon": "02",
		"mday": "09",
		"hour": "11",
		"min": "47",
		"tzname": "America/Los_Angeles"
		},
		"utcdate": {
		"pretty": "7:47 PM GMT on February 09, 2015",
		"year": "2015",
		"mon": "02",
		"mday": "09",
		"hour": "19",
		"min": "47",
		"tzname": "UTC"
		},
		"tempm":"16.0", "tempi":"60.8","dewptm":"10.0", "dewpti":"50.0","hum":"68","wspdm":"33.3", "wspdi":"20.7","wgustm":"-9999.0", "wgusti":"-9999.0","wdird":"150","wdire":"SSE","vism":"14.5", "visi":"9.0","pressurem":"1022.6", "pressurei":"30.20","windchillm":"-999", "windchilli":"-999","heatindexm":"-9999", "heatindexi":"-9999","precipm":"-9999.00", "precipi":"-9999.00","conds":"Mostly Cloudy","icon":"mostlycloudy","fog":"0","rain":"0","snow":"0","hail":"0","thunder":"0","tornado":"0","metar":"METAR KCIC 091947Z 15018KT 9SM SCT020 BKN055 16/10 A3020" },
		{
		"date": {
		"pretty": "12:47 PM PST on February 09, 2015",
		"year": "2015",
		"mon": "02",
		"mday": "09",
		"hour": "12",
		"min": "47",
		"tzname": "America/Los_Angeles"
		},
		"utcdate": {
		"pretty": "8:47 PM GMT on February 09, 2015",
		"year": "2015",
		"mon": "02",
		"mday": "09",
		"hour": "20",
		"min": "47",
		"tzname": "UTC"
		},
		"tempm":"17.0", "tempi":"62.6","dewptm":"10.0", "dewpti":"50.0","hum":"63","wspdm":"37.0", "wspdi":"23.0","wgustm":"-9999.0", "wgusti":"-9999.0","wdird":"130","wdire":"SE","vism":"16.1", "visi":"10.0","pressurem":"1021.9", "pressurei":"30.18","windchillm":"-999", "windchilli":"-999","heatindexm":"-9999", "heatindexi":"-9999","precipm":"-9999.00", "precipi":"-9999.00","conds":"Mostly Cloudy","icon":"mostlycloudy","fog":"0","rain":"0","snow":"0","hail":"0","thunder":"0","tornado":"0","metar":"METAR KCIC 092047Z 13020KT 10SM FEW020 BKN080 17/10 A3018" },
		{
		"date": {
		"pretty": "1:47 PM PST on February 09, 2015",
		"year": "2015",
		"mon": "02",
		"mday": "09",
		"hour": "13",
		"min": "47",
		"tzname": "America/Los_Angeles"
		},
		"utcdate": {
		"pretty": "9:47 PM GMT on February 09, 2015",
		"year": "2015",
		"mon": "02",
		"mday": "09",
		"hour": "21",
		"min": "47",
		"tzname": "UTC"
		},
		"tempm":"17.0", "tempi":"62.6","dewptm":"12.0", "dewpti":"53.6","hum":"72","wspdm":"27.8", "wspdi":"17.3","wgustm":"-9999.0", "wgusti":"-9999.0","wdird":"130","wdire":"SE","vism":"40.2", "visi":"25.0","pressurem":"1021.6", "pressurei":"30.17","windchillm":"-999", "windchilli":"-999","heatindexm":"-9999", "heatindexi":"-9999","precipm":"-9999.00", "precipi":"-9999.00","conds":"Mostly Cloudy","icon":"mostlycloudy","fog":"0","rain":"0","snow":"0","hail":"0","thunder":"0","tornado":"0","metar":"METAR KCIC 092147Z 13015KT 25SM SCT025 BKN080 17/12 A3017" },
		{
		"date": {
		"pretty": "2:47 PM PST on February 09, 2015",
		"year": "2015",
		"mon": "02",
		"mday": "09",
		"hour": "14",
		"min": "47",
		"tzname": "America/Los_Angeles"
		},
		"utcdate": {
		"pretty": "10:47 PM GMT on February 09, 2015",
		"year": "2015",
		"mon": "02",
		"mday": "09",
		"hour": "22",
		"min": "47",
		"tzname": "UTC"
		},
		"tempm":"17.0", "tempi":"62.6","dewptm":"10.0", "dewpti":"50.0","hum":"63","wspdm":"27.8", "wspdi":"17.3","wgustm":"-9999.0", "wgusti":"-9999.0","wdird":"130","wdire":"SE","vism":"64.4", "visi":"40.0","pressurem":"1021.6", "pressurei":"30.17","windchillm":"-999", "windchilli":"-999","heatindexm":"-9999", "heatindexi":"-9999","precipm":"-9999.00", "precipi":"-9999.00","conds":"Scattered Clouds","icon":"partlycloudy","fog":"0","rain":"0","snow":"0","hail":"0","thunder":"0","tornado":"0","metar":"METAR KCIC 092247Z 13015KT 40SM SCT032 SCT080 17/10 A3017" },
		{
		"date": {
		"pretty": "3:47 PM PST on February 09, 2015",
		"year": "2015",
		"mon": "02",
		"mday": "09",
		"hour": "15",
		"min": "47",
		"tzname": "America/Los_Angeles"
		},
		"utcdate": {
		"pretty": "11:47 PM GMT on February 09, 2015",
		"year": "2015",
		"mon": "02",
		"mday": "09",
		"hour": "23",
		"min": "47",
		"tzname": "UTC"
		},
		"tempm":"17.0", "tempi":"62.6","dewptm":"10.0", "dewpti":"50.0","hum":"63","wspdm":"22.2", "wspdi":"13.8","wgustm":"-9999.0", "wgusti":"-9999.0","wdird":"130","wdire":"SE","vism":"16.1", "visi":"10.0","pressurem":"1021.9", "pressurei":"30.18","windchillm":"-999", "windchilli":"-999","heatindexm":"-9999", "heatindexi":"-9999","precipm":"-9999.00", "precipi":"-9999.00","conds":"Scattered Clouds","icon":"partlycloudy","fog":"0","rain":"0","snow":"0","hail":"0","thunder":"0","tornado":"0","metar":"METAR KCIC 092347Z 13012KT 10SM SCT036 17/10 A3018" },
		{
		"date": {
		"pretty": "4:47 PM PST on February 09, 2015",
		"year": "2015",
		"mon": "02",
		"mday": "09",
		"hour": "16",
		"min": "47",
		"tzname": "America/Los_Angeles"
		},
		"utcdate": {
		"pretty": "12:47 AM GMT on February 10, 2015",
		"year": "2015",
		"mon": "02",
		"mday": "10",
		"hour": "00",
		"min": "47",
		"tzname": "UTC"
		},
		"tempm":"17.0", "tempi":"62.6","dewptm":"10.0", "dewpti":"50.0","hum":"63","wspdm":"18.5", "wspdi":"11.5","wgustm":"-9999.0", "wgusti":"-9999.0","wdird":"130","wdire":"SE","vism":"16.1", "visi":"10.0","pressurem":"1022.2", "pressurei":"30.19","windchillm":"-999", "windchilli":"-999","heatindexm":"-9999", "heatindexi":"-9999","precipm":"-9999.00", "precipi":"-9999.00","conds":"Scattered Clouds","icon":"partlycloudy","fog":"0","rain":"0","snow":"0","hail":"0","thunder":"0","tornado":"0","metar":"METAR KCIC 100047Z 13010KT 10SM SCT036 SCT090 17/10 A3019" },
		{
		"date": {
		"pretty": "5:47 PM PST on February 09, 2015",
		"year": "2015",
		"mon": "02",
		"mday": "09",
		"hour": "17",
		"min": "47",
		"tzname": "America/Los_Angeles"
		},
		"utcdate": {
		"pretty": "1:47 AM GMT on February 10, 2015",
		"year": "2015",
		"mon": "02",
		"mday": "10",
		"hour": "01",
		"min": "47",
		"tzname": "UTC"
		},
		"tempm":"15.0", "tempi":"59.0","dewptm":"10.0", "dewpti":"50.0","hum":"72","wspdm":"18.5", "wspdi":"11.5","wgustm":"-9999.0", "wgusti":"-9999.0","wdird":"130","wdire":"SE","vism":"16.1", "visi":"10.0","pressurem":"1022.2", "pressurei":"30.19","windchillm":"-999", "windchilli":"-999","heatindexm":"-9999", "heatindexi":"-9999","precipm":"-9999.00", "precipi":"-9999.00","conds":"Scattered Clouds","icon":"partlycloudy","fog":"0","rain":"0","snow":"0","hail":"0","thunder":"0","tornado":"0","metar":"METAR KCIC 100147Z 13010KT 10SM SCT036 15/10 A3019" },
		{
		"date": {
		"pretty": "5:55 PM PST on February 09, 2015",
		"year": "2015",
		"mon": "02",
		"mday": "09",
		"hour": "17",
		"min": "55",
		"tzname": "America/Los_Angeles"
		},
		"utcdate": {
		"pretty": "1:55 AM GMT on February 10, 2015",
		"year": "2015",
		"mon": "02",
		"mday": "10",
		"hour": "01",
		"min": "55",
		"tzname": "UTC"
		},
		"tempm":"15.0", "tempi":"59.0","dewptm":"10.0", "dewpti":"50.0","hum":"72","wspdm":"9.3", "wspdi":"5.8","wgustm":"-9999.0", "wgusti":"-9999.0","wdird":"120","wdire":"ESE","vism":"16.1", "visi":"10.0","pressurem":"1022.6", "pressurei":"30.20","windchillm":"-999", "windchilli":"-999","heatindexm":"-9999", "heatindexi":"-9999","precipm":"-9999.00", "precipi":"-9999.00","conds":"Clear","icon":"clear","fog":"0","rain":"0","snow":"0","hail":"0","thunder":"0","tornado":"0","metar":"METAR KCIC 100155Z AUTO 12005KT 10SM CLR 15/10 A3020 RMK AO1" },
		{
		"date": {
		"pretty": "6:15 PM PST on February 09, 2015",
		"year": "2015",
		"mon": "02",
		"mday": "09",
		"hour": "18",
		"min": "15",
		"tzname": "America/Los_Angeles"
		},
		"utcdate": {
		"pretty": "2:15 AM GMT on February 10, 2015",
		"year": "2015",
		"mon": "02",
		"mday": "10",
		"hour": "02",
		"min": "15",
		"tzname": "UTC"
		},
		"tempm":"14.0", "tempi":"57.2","dewptm":"10.0", "dewpti":"50.0","hum":"77","wspdm":"7.4", "wspdi":"4.6","wgustm":"-9999.0", "wgusti":"-9999.0","wdird":"120","wdire":"ESE","vism":"16.1", "visi":"10.0","pressurem":"1022.6", "pressurei":"30.20","windchillm":"-999", "windchilli":"-999","heatindexm":"-9999", "heatindexi":"-9999","precipm":"-9999.00", "precipi":"-9999.00","conds":"Clear","icon":"clear","fog":"0","rain":"0","snow":"0","hail":"0","thunder":"0","tornado":"0","metar":"METAR KCIC 100215Z AUTO 12004KT 10SM CLR 14/10 A3020 RMK AO1" },
		{
		"date": {
		"pretty": "6:35 PM PST on February 09, 2015",
		"year": "2015",
		"mon": "02",
		"mday": "09",
		"hour": "18",
		"min": "35",
		"tzname": "America/Los_Angeles"
		},
		"utcdate": {
		"pretty": "2:35 AM GMT on February 10, 2015",
		"year": "2015",
		"mon": "02",
		"mday": "10",
		"hour": "02",
		"min": "35",
		"tzname": "UTC"
		},
		"tempm":"14.0", "tempi":"57.2","dewptm":"10.0", "dewpti":"50.0","hum":"77","wspdm":"0.0", "wspdi":"0.0","wgustm":"-9999.0", "wgusti":"-9999.0","wdird":"0","wdire":"North","vism":"16.1", "visi":"10.0","pressurem":"1022.9", "pressurei":"30.21","windchillm":"-999", "windchilli":"-999","heatindexm":"-9999", "heatindexi":"-9999","precipm":"-9999.00", "precipi":"-9999.00","conds":"Clear","icon":"clear","fog":"0","rain":"0","snow":"0","hail":"0","thunder":"0","tornado":"0","metar":"METAR KCIC 100235Z AUTO 00000KT 10SM CLR 14/10 A3021 RMK AO1" },
		{
		"date": {
		"pretty": "6:47 PM PST on February 09, 2015",
		"year": "2015",
		"mon": "02",
		"mday": "09",
		"hour": "18",
		"min": "47",
		"tzname": "America/Los_Angeles"
		},
		"utcdate": {
		"pretty": "2:47 AM GMT on February 10, 2015",
		"year": "2015",
		"mon": "02",
		"mday": "10",
		"hour": "02",
		"min": "47",
		"tzname": "UTC"
		},
		"tempm":"14.0", "tempi":"57.2","dewptm":"10.0", "dewpti":"50.0","hum":"77","wspdm":"9.3", "wspdi":"5.8","wgustm":"-9999.0", "wgusti":"-9999.0","wdird":"90","wdire":"East","vism":"16.1", "visi":"10.0","pressurem":"1022.9", "pressurei":"30.21","windchillm":"-999", "windchilli":"-999","heatindexm":"-9999", "heatindexi":"-9999","precipm":"-9999.00", "precipi":"-9999.00","conds":"Clear","icon":"clear","fog":"0","rain":"0","snow":"0","hail":"0","thunder":"0","tornado":"0","metar":"METAR KCIC 100247Z 09005KT 10SM SKC 14/10 A3021" },
		{
		"date": {
		"pretty": "6:55 PM PST on February 09, 2015",
		"year": "2015",
		"mon": "02",
		"mday": "09",
		"hour": "18",
		"min": "55",
		"tzname": "America/Los_Angeles"
		},
		"utcdate": {
		"pretty": "2:55 AM GMT on February 10, 2015",
		"year": "2015",
		"mon": "02",
		"mday": "10",
		"hour": "02",
		"min": "55",
		"tzname": "UTC"
		},
		"tempm":"14.0", "tempi":"57.2","dewptm":"10.0", "dewpti":"50.0","hum":"77","wspdm":"7.4", "wspdi":"4.6","wgustm":"-9999.0", "wgusti":"-9999.0","wdird":"100","wdire":"East","vism":"16.1", "visi":"10.0","pressurem":"1022.9", "pressurei":"30.21","windchillm":"-999", "windchilli":"-999","heatindexm":"-9999", "heatindexi":"-9999","precipm":"-9999.00", "precipi":"-9999.00","conds":"Clear","icon":"clear","fog":"0","rain":"0","snow":"0","hail":"0","thunder":"0","tornado":"0","metar":"METAR KCIC 100255Z AUTO 10004KT 10SM CLR 14/10 A3021 RMK AO1" },
		{
		"date": {
		"pretty": "7:15 PM PST on February 09, 2015",
		"year": "2015",
		"mon": "02",
		"mday": "09",
		"hour": "19",
		"min": "15",
		"tzname": "America/Los_Angeles"
		},
		"utcdate": {
		"pretty": "3:15 AM GMT on February 10, 2015",
		"year": "2015",
		"mon": "02",
		"mday": "10",
		"hour": "03",
		"min": "15",
		"tzname": "UTC"
		},
		"tempm":"14.0", "tempi":"57.2","dewptm":"10.0", "dewpti":"50.0","hum":"77","wspdm":"7.4", "wspdi":"4.6","wgustm":"-9999.0", "wgusti":"-9999.0","wdird":"90","wdire":"East","vism":"16.1", "visi":"10.0","pressurem":"1022.9", "pressurei":"30.21","windchillm":"-999", "windchilli":"-999","heatindexm":"-9999", "heatindexi":"-9999","precipm":"-9999.00", "precipi":"-9999.00","conds":"Partly Cloudy","icon":"partlycloudy","fog":"0","rain":"0","snow":"0","hail":"0","thunder":"0","tornado":"0","metar":"METAR KCIC 100315Z AUTO 09004KT 10SM FEW055 14/10 A3021 RMK AO1" },
		{
		"date": {
		"pretty": "7:35 PM PST on February 09, 2015",
		"year": "2015",
		"mon": "02",
		"mday": "09",
		"hour": "19",
		"min": "35",
		"tzname": "America/Los_Angeles"
		},
		"utcdate": {
		"pretty": "3:35 AM GMT on February 10, 2015",
		"year": "2015",
		"mon": "02",
		"mday": "10",
		"hour": "03",
		"min": "35",
		"tzname": "UTC"
		},
		"tempm":"14.0", "tempi":"57.2","dewptm":"10.0", "dewpti":"50.0","hum":"77","wspdm":"7.4", "wspdi":"4.6","wgustm":"-9999.0", "wgusti":"-9999.0","wdird":"110","wdire":"ESE","vism":"16.1", "visi":"10.0","pressurem":"1023.2", "pressurei":"30.22","windchillm":"-999", "windchilli":"-999","heatindexm":"-9999", "heatindexi":"-9999","precipm":"-9999.00", "precipi":"-9999.00","conds":"Partly Cloudy","icon":"partlycloudy","fog":"0","rain":"0","snow":"0","hail":"0","thunder":"0","tornado":"0","metar":"METAR KCIC 100335Z AUTO 11004KT 10SM FEW050 14/10 A3022 RMK AO1" },
		{
		"date": {
		"pretty": "7:55 PM PST on February 09, 2015",
		"year": "2015",
		"mon": "02",
		"mday": "09",
		"hour": "19",
		"min": "55",
		"tzname": "America/Los_Angeles"
		},
		"utcdate": {
		"pretty": "3:55 AM GMT on February 10, 2015",
		"year": "2015",
		"mon": "02",
		"mday": "10",
		"hour": "03",
		"min": "55",
		"tzname": "UTC"
		},
		"tempm":"14.0", "tempi":"57.2","dewptm":"10.0", "dewpti":"50.0","hum":"77","wspdm":"5.6", "wspdi":"3.5","wgustm":"-9999.0", "wgusti":"-9999.0","wdird":"110","wdire":"ESE","vism":"16.1", "visi":"10.0","pressurem":"1023.2", "pressurei":"30.22","windchillm":"-999", "windchilli":"-999","heatindexm":"-9999", "heatindexi":"-9999","precipm":"-9999.00", "precipi":"-9999.00","conds":"Partly Cloudy","icon":"partlycloudy","fog":"0","rain":"0","snow":"0","hail":"0","thunder":"0","tornado":"0","metar":"METAR KCIC 100355Z AUTO 11003KT 10SM FEW050 FEW055 14/10 A3022 RMK AO1" },
		{
		"date": {
		"pretty": "8:15 PM PST on February 09, 2015",
		"year": "2015",
		"mon": "02",
		"mday": "09",
		"hour": "20",
		"min": "15",
		"tzname": "America/Los_Angeles"
		},
		"utcdate": {
		"pretty": "4:15 AM GMT on February 10, 2015",
		"year": "2015",
		"mon": "02",
		"mday": "10",
		"hour": "04",
		"min": "15",
		"tzname": "UTC"
		},
		"tempm":"14.0", "tempi":"57.2","dewptm":"10.0", "dewpti":"50.0","hum":"77","wspdm":"5.6", "wspdi":"3.5","wgustm":"-9999.0", "wgusti":"-9999.0","wdird":"100","wdire":"East","vism":"16.1", "visi":"10.0","pressurem":"1023.2", "pressurei":"30.22","windchillm":"-999", "windchilli":"-999","heatindexm":"-9999", "heatindexi":"-9999","precipm":"-9999.00", "precipi":"-9999.00","conds":"Scattered Clouds","icon":"partlycloudy","fog":"0","rain":"0","snow":"0","hail":"0","thunder":"0","tornado":"0","metar":"METAR KCIC 100415Z AUTO 10003KT 10SM SCT050 14/10 A3022 RMK AO1" },
		{
		"date": {
		"pretty": "8:35 PM PST on February 09, 2015",
		"year": "2015",
		"mon": "02",
		"mday": "09",
		"hour": "20",
		"min": "35",
		"tzname": "America/Los_Angeles"
		},
		"utcdate": {
		"pretty": "4:35 AM GMT on February 10, 2015",
		"year": "2015",
		"mon": "02",
		"mday": "10",
		"hour": "04",
		"min": "35",
		"tzname": "UTC"
		},
		"tempm":"14.0", "tempi":"57.2","dewptm":"10.0", "dewpti":"50.0","hum":"77","wspdm":"7.4", "wspdi":"4.6","wgustm":"-9999.0", "wgusti":"-9999.0","wdird":"110","wdire":"ESE","vism":"16.1", "visi":"10.0","pressurem":"1023.2", "pressurei":"30.22","windchillm":"-999", "windchilli":"-999","heatindexm":"-9999", "heatindexi":"-9999","precipm":"-9999.00", "precipi":"-9999.00","conds":"Scattered Clouds","icon":"partlycloudy","fog":"0","rain":"0","snow":"0","hail":"0","thunder":"0","tornado":"0","metar":"METAR KCIC 100435Z AUTO 11004KT 10SM SCT050 14/10 A3022 RMK AO1" },
		{
		"date": {
		"pretty": "8:55 PM PST on February 09, 2015",
		"year": "2015",
		"mon": "02",
		"mday": "09",
		"hour": "20",
		"min": "55",
		"tzname": "America/Los_Angeles"
		},
		"utcdate": {
		"pretty": "4:55 AM GMT on February 10, 2015",
		"year": "2015",
		"mon": "02",
		"mday": "10",
		"hour": "04",
		"min": "55",
		"tzname": "UTC"
		},
		"tempm":"12.0", "tempi":"53.6","dewptm":"10.0", "dewpti":"50.0","hum":"88","wspdm":"7.4", "wspdi":"4.6","wgustm":"-9999.0", "wgusti":"-9999.0","wdird":"40","wdire":"NE","vism":"16.1", "visi":"10.0","pressurem":"1023.6", "pressurei":"30.23","windchillm":"-999", "windchilli":"-999","heatindexm":"-9999", "heatindexi":"-9999","precipm":"-9999.00", "precipi":"-9999.00","conds":"Scattered Clouds","icon":"partlycloudy","fog":"0","rain":"0","snow":"0","hail":"0","thunder":"0","tornado":"0","metar":"METAR KCIC 100455Z AUTO 04004KT 10SM SCT050 12/10 A3023 RMK AO1" },
		{
		"date": {
		"pretty": "9:15 PM PST on February 09, 2015",
		"year": "2015",
		"mon": "02",
		"mday": "09",
		"hour": "21",
		"min": "15",
		"tzname": "America/Los_Angeles"
		},
		"utcdate": {
		"pretty": "5:15 AM GMT on February 10, 2015",
		"year": "2015",
		"mon": "02",
		"mday": "10",
		"hour": "05",
		"min": "15",
		"tzname": "UTC"
		},
		"tempm":"12.0", "tempi":"53.6","dewptm":"9.0", "dewpti":"48.2","hum":"82","wspdm":"0.0", "wspdi":"0.0","wgustm":"-9999.0", "wgusti":"-9999.0","wdird":"0","wdire":"North","vism":"16.1", "visi":"10.0","pressurem":"1023.6", "pressurei":"30.23","windchillm":"-999", "windchilli":"-999","heatindexm":"-9999", "heatindexi":"-9999","precipm":"-9999.00", "precipi":"-9999.00","conds":"Clear","icon":"clear","fog":"0","rain":"0","snow":"0","hail":"0","thunder":"0","tornado":"0","metar":"METAR KCIC 100515Z AUTO 00000KT 10SM CLR 12/09 A3023 RMK AO1" },
		{
		"date": {
		"pretty": "9:35 PM PST on February 09, 2015",
		"year": "2015",
		"mon": "02",
		"mday": "09",
		"hour": "21",
		"min": "35",
		"tzname": "America/Los_Angeles"
		},
		"utcdate": {
		"pretty": "5:35 AM GMT on February 10, 2015",
		"year": "2015",
		"mon": "02",
		"mday": "10",
		"hour": "05",
		"min": "35",
		"tzname": "UTC"
		},
		"tempm":"12.0", "tempi":"53.6","dewptm":"9.0", "dewpti":"48.2","hum":"82","wspdm":"0.0", "wspdi":"0.0","wgustm":"-9999.0", "wgusti":"-9999.0","wdird":"0","wdire":"North","vism":"16.1", "visi":"10.0","pressurem":"1023.6", "pressurei":"30.23","windchillm":"-999", "windchilli":"-999","heatindexm":"-9999", "heatindexi":"-9999","precipm":"-9999.00", "precipi":"-9999.00","conds":"Clear","icon":"clear","fog":"0","rain":"0","snow":"0","hail":"0","thunder":"0","tornado":"0","metar":"METAR KCIC 100535Z AUTO 00000KT 10SM CLR 12/09 A3023 RMK AO1" },
		{
		"date": {
		"pretty": "9:55 PM PST on February 09, 2015",
		"year": "2015",
		"mon": "02",
		"mday": "09",
		"hour": "21",
		"min": "55",
		"tzname": "America/Los_Angeles"
		},
		"utcdate": {
		"pretty": "5:55 AM GMT on February 10, 2015",
		"year": "2015",
		"mon": "02",
		"mday": "10",
		"hour": "05",
		"min": "55",
		"tzname": "UTC"
		},
		"tempm":"12.0", "tempi":"53.6","dewptm":"9.0", "dewpti":"48.2","hum":"82","wspdm":"0.0", "wspdi":"0.0","wgustm":"-9999.0", "wgusti":"-9999.0","wdird":"0","wdire":"North","vism":"16.1", "visi":"10.0","pressurem":"1023.9", "pressurei":"30.24","windchillm":"-999", "windchilli":"-999","heatindexm":"-9999", "heatindexi":"-9999","precipm":"-9999.00", "precipi":"-9999.00","conds":"Clear","icon":"clear","fog":"0","rain":"0","snow":"0","hail":"0","thunder":"0","tornado":"0","metar":"METAR KCIC 100555Z AUTO 00000KT 10SM CLR 12/09 A3024 RMK AO1" },
		{
		"date": {
		"pretty": "10:35 PM PST on February 09, 2015",
		"year": "2015",
		"mon": "02",
		"mday": "09",
		"hour": "22",
		"min": "35",
		"tzname": "America/Los_Angeles"
		},
		"utcdate": {
		"pretty": "6:35 AM GMT on February 10, 2015",
		"year": "2015",
		"mon": "02",
		"mday": "10",
		"hour": "06",
		"min": "35",
		"tzname": "UTC"
		},
		"tempm":"12.0", "tempi":"53.6","dewptm":"9.0", "dewpti":"48.2","hum":"82","wspdm":"9.3", "wspdi":"5.8","wgustm":"-9999.0", "wgusti":"-9999.0","wdird":"60","wdire":"ENE","vism":"16.1", "visi":"10.0","pressurem":"1024.3", "pressurei":"30.25","windchillm":"-999", "windchilli":"-999","heatindexm":"-9999", "heatindexi":"-9999","precipm":"-9999.00", "precipi":"-9999.00","conds":"Clear","icon":"clear","fog":"0","rain":"0","snow":"0","hail":"0","thunder":"0","tornado":"0","metar":"METAR KCIC 100635Z AUTO 06005KT 10SM CLR 12/09 A3025 RMK AO1" },
		{
		"date": {
		"pretty": "10:55 PM PST on February 09, 2015",
		"year": "2015",
		"mon": "02",
		"mday": "09",
		"hour": "22",
		"min": "55",
		"tzname": "America/Los_Angeles"
		},
		"utcdate": {
		"pretty": "6:55 AM GMT on February 10, 2015",
		"year": "2015",
		"mon": "02",
		"mday": "10",
		"hour": "06",
		"min": "55",
		"tzname": "UTC"
		},
		"tempm":"11.0", "tempi":"51.8","dewptm":"9.0", "dewpti":"48.2","hum":"88","wspdm":"0.0", "wspdi":"0.0","wgustm":"-9999.0", "wgusti":"-9999.0","wdird":"0","wdire":"North","vism":"16.1", "visi":"10.0","pressurem":"1024.3", "pressurei":"30.25","windchillm":"-999", "windchilli":"-999","heatindexm":"-9999", "heatindexi":"-9999","precipm":"-9999.00", "precipi":"-9999.00","conds":"Clear","icon":"clear","fog":"0","rain":"0","snow":"0","hail":"0","thunder":"0","tornado":"0","metar":"METAR KCIC 100655Z AUTO 00000KT 10SM CLR 11/09 A3025 RMK AO1" },
		{
		"date": {
		"pretty": "11:15 PM PST on February 09, 2015",
		"year": "2015",
		"mon": "02",
		"mday": "09",
		"hour": "23",
		"min": "15",
		"tzname": "America/Los_Angeles"
		},
		"utcdate": {
		"pretty": "7:15 AM GMT on February 10, 2015",
		"year": "2015",
		"mon": "02",
		"mday": "10",
		"hour": "07",
		"min": "15",
		"tzname": "UTC"
		},
		"tempm":"10.0", "tempi":"50.0","dewptm":"9.0", "dewpti":"48.2","hum":"94","wspdm":"11.1", "wspdi":"6.9","wgustm":"-9999.0", "wgusti":"-9999.0","wdird":"340","wdire":"NNW","vism":"16.1", "visi":"10.0","pressurem":"1024.3", "pressurei":"30.25","windchillm":"-999", "windchilli":"-999","heatindexm":"-9999", "heatindexi":"-9999","precipm":"-9999.00", "precipi":"-9999.00","conds":"Clear","icon":"clear","fog":"0","rain":"0","snow":"0","hail":"0","thunder":"0","tornado":"0","metar":"METAR KCIC 100715Z AUTO 34006KT 10SM CLR 10/09 A3025 RMK AO1" },
		{
		"date": {
		"pretty": "11:35 PM PST on February 09, 2015",
		"year": "2015",
		"mon": "02",
		"mday": "09",
		"hour": "23",
		"min": "35",
		"tzname": "America/Los_Angeles"
		},
		"utcdate": {
		"pretty": "7:35 AM GMT on February 10, 2015",
		"year": "2015",
		"mon": "02",
		"mday": "10",
		"hour": "07",
		"min": "35",
		"tzname": "UTC"
		},
		"tempm":"10.0", "tempi":"50.0","dewptm":"9.0", "dewpti":"48.2","hum":"94","wspdm":"11.1", "wspdi":"6.9","wgustm":"-9999.0", "wgusti":"-9999.0","wdird":"360","wdire":"North","vism":"16.1", "visi":"10.0","pressurem":"1024.3", "pressurei":"30.25","windchillm":"-999", "windchilli":"-999","heatindexm":"-9999", "heatindexi":"-9999","precipm":"-9999.00", "precipi":"-9999.00","conds":"Clear","icon":"clear","fog":"0","rain":"0","snow":"0","hail":"0","thunder":"0","tornado":"0","metar":"METAR KCIC 100735Z AUTO 36006KT 10SM CLR 10/09 A3025 RMK AO1" },
		{
		"date": {
		"pretty": "11:55 PM PST on February 09, 2015",
		"year": "2015",
		"mon": "02",
		"mday": "09",
		"hour": "23",
		"min": "55",
		"tzname": "America/Los_Angeles"
		},
		"utcdate": {
		"pretty": "7:55 AM GMT on February 10, 2015",
		"year": "2015",
		"mon": "02",
		"mday": "10",
		"hour": "07",
		"min": "55",
		"tzname": "UTC"
		},
		"tempm":"11.0", "tempi":"51.8","dewptm":"9.0", "dewpti":"48.2","hum":"88","wspdm":"0.0", "wspdi":"0.0","wgustm":"-9999.0", "wgusti":"-9999.0","wdird":"0","wdire":"North","vism":"16.1", "visi":"10.0","pressurem":"1024.3", "pressurei":"30.25","windchillm":"-999", "windchilli":"-999","heatindexm":"-9999", "heatindexi":"-9999","precipm":"-9999.00", "precipi":"-9999.00","conds":"Clear","icon":"clear","fog":"0","rain":"0","snow":"0","hail":"0","thunder":"0","tornado":"0","metar":"METAR KCIC 100755Z AUTO 00000KT 10SM CLR 11/09 A3025 RMK AO1" }
		],
		"dailysummary": [
		{ "date": {
		"pretty": "12:00 PM PST on February 09, 2015",
		"year": "2015",
		"mon": "02",
		"mday": "09",
		"hour": "12",
		"min": "00",
		"tzname": "America/Los_Angeles"
		},
		"fog":"0","rain":"0","snow":"0","snowfallm":"0.00", "snowfalli":"0.00","monthtodatesnowfallm":"", "monthtodatesnowfalli":"","since1julsnowfallm":"", "since1julsnowfalli":"","snowdepthm":"", "snowdepthi":"","hail":"0","thunder":"0","tornado":"0","meantempm":"13", "meantempi":"56","meandewptm":"11", "meandewpti":"51","meanpressurem":"1020", "meanpressurei":"30.12","meanwindspdm":"31", "meanwindspdi":"19","meanwdire":"","meanwdird":"125","meanvism":"16", "meanvisi":"10","humidity":"","maxtempm":"17", "maxtempi":"62","mintempm":"10", "mintempi":"50","maxhumidity":"100","minhumidity":"63","maxdewptm":"13", "maxdewpti":"55","mindewptm":"9", "mindewpti":"48","maxpressurem":"1026", "maxpressurei":"30.30","minpressurem":"1012", "minpressurei":"29.89","maxwspdm":"48", "maxwspdi":"30","minwspdm":"0", "minwspdi":"0","maxvism":"16", "maxvisi":"10","minvism":"14", "minvisi":"9","gdegreedays":"6","heatingdegreedays":"9","coolingdegreedays":"0","precipm":"0.00", "precipi":"0.00","precipsource":"","heatingdegreedaysnormal":"","monthtodateheatingdegreedays":"","monthtodateheatingdegreedaysnormal":"","since1sepheatingdegreedays":"","since1sepheatingdegreedaysnormal":"","since1julheatingdegreedays":"","since1julheatingdegreedaysnormal":"","coolingdegreedaysnormal":"","monthtodatecoolingdegreedays":"","monthtodatecoolingdegreedaysnormal":"","since1sepcoolingdegreedays":"","since1sepcoolingdegreedaysnormal":"","since1jancoolingdegreedays":"","since1jancoolingdegreedaysnormal":"" }
		]
	}
}