
{
  "response": {
  "version":"0.1",
  "termsofService":"http://www.wunderground.com/weather/api/d/terms.html",
  "features": {
  "history": 1
  }
	}
		,
	"history": {
		"date": {
		"pretty": "February 2, 2015",
		"year": "2015",
		"mon": "02",
		"mday": "02",
		"hour": "12",
		"min": "00",
		"tzname": "America/Los_Angeles"
		},
		"utcdate": {
		"pretty": "February 2, 2015",
		"year": "2015",
		"mon": "02",
		"mday": "02",
		"hour": "20",
		"min": "00",
		"tzname": "UTC"
		},
		"observations": [
		{
		"date": {
		"pretty": "12:15 AM PST on February 02, 2015",
		"year": "2015",
		"mon": "02",
		"mday": "02",
		"hour": "00",
		"min": "15",
		"tzname": "America/Los_Angeles"
		},
		"utcdate": {
		"pretty": "8:15 AM GMT on February 02, 2015",
		"year": "2015",
		"mon": "02",
		"mday": "02",
		"hour": "08",
		"min": "15",
		"tzname": "UTC"
		},
		"tempm":"8.0", "tempi":"46.4","dewptm":"7.0", "dewpti":"44.6","hum":"93","wspdm":"0.0", "wspdi":"0.0","wgustm":"-9999.0", "wgusti":"-9999.0","wdird":"0","wdire":"North","vism":"16.1", "visi":"10.0","pressurem":"1021.9", "pressurei":"30.18","windchillm":"-999", "windchilli":"-999","heatindexm":"-9999", "heatindexi":"-9999","precipm":"-9999.00", "precipi":"-9999.00","conds":"Clear","icon":"clear","fog":"0","rain":"0","snow":"0","hail":"0","thunder":"0","tornado":"0","metar":"METAR KCIC 020815Z AUTO 00000KT 10SM CLR 08/07 A3018 RMK AO1" },
		{
		"date": {
		"pretty": "12:35 AM PST on February 02, 2015",
		"year": "2015",
		"mon": "02",
		"mday": "02",
		"hour": "00",
		"min": "35",
		"tzname": "America/Los_Angeles"
		},
		"utcdate": {
		"pretty": "8:35 AM GMT on February 02, 2015",
		"year": "2015",
		"mon": "02",
		"mday": "02",
		"hour": "08",
		"min": "35",
		"tzname": "UTC"
		},
		"tempm":"8.0", "tempi":"46.4","dewptm":"8.0", "dewpti":"46.4","hum":"100","wspdm":"0.0", "wspdi":"0.0","wgustm":"-9999.0", "wgusti":"-9999.0","wdird":"0","wdire":"North","vism":"16.1", "visi":"10.0","pressurem":"1021.6", "pressurei":"30.17","windchillm":"-999", "windchilli":"-999","heatindexm":"-9999", "heatindexi":"-9999","precipm":"-9999.00", "precipi":"-9999.00","conds":"Clear","icon":"clear","fog":"0","rain":"0","snow":"0","hail":"0","thunder":"0","tornado":"0","metar":"METAR KCIC 020835Z AUTO 00000KT 10SM CLR 08/08 A3017 RMK AO1" },
		{
		"date": {
		"pretty": "12:55 AM PST on February 02, 2015",
		"year": "2015",
		"mon": "02",
		"mday": "02",
		"hour": "00",
		"min": "55",
		"tzname": "America/Los_Angeles"
		},
		"utcdate": {
		"pretty": "8:55 AM GMT on February 02, 2015",
		"year": "2015",
		"mon": "02",
		"mday": "02",
		"hour": "08",
		"min": "55",
		"tzname": "UTC"
		},
		"tempm":"8.0", "tempi":"46.4","dewptm":"7.0", "dewpti":"44.6","hum":"93","wspdm":"0.0", "wspdi":"0.0","wgustm":"-9999.0", "wgusti":"-9999.0","wdird":"0","wdire":"North","vism":"16.1", "visi":"10.0","pressurem":"1021.6", "pressurei":"30.17","windchillm":"-999", "windchilli":"-999","heatindexm":"-9999", "heatindexi":"-9999","precipm":"-9999.00", "precipi":"-9999.00","conds":"Clear","icon":"clear","fog":"0","rain":"0","snow":"0","hail":"0","thunder":"0","tornado":"0","metar":"METAR KCIC 020855Z AUTO 00000KT 10SM CLR 08/07 A3017 RMK AO1" },
		{
		"date": {
		"pretty": "1:15 AM PST on February 02, 2015",
		"year": "2015",
		"mon": "02",
		"mday": "02",
		"hour": "01",
		"min": "15",
		"tzname": "America/Los_Angeles"
		},
		"utcdate": {
		"pretty": "9:15 AM GMT on February 02, 2015",
		"year": "2015",
		"mon": "02",
		"mday": "02",
		"hour": "09",
		"min": "15",
		"tzname": "UTC"
		},
		"tempm":"8.0", "tempi":"46.4","dewptm":"7.0", "dewpti":"44.6","hum":"93","wspdm":"0.0", "wspdi":"0.0","wgustm":"-9999.0", "wgusti":"-9999.0","wdird":"0","wdire":"North","vism":"16.1", "visi":"10.0","pressurem":"1021.6", "pressurei":"30.17","windchillm":"-999", "windchilli":"-999","heatindexm":"-9999", "heatindexi":"-9999","precipm":"-9999.00", "precipi":"-9999.00","conds":"Clear","icon":"clear","fog":"0","rain":"0","snow":"0","hail":"0","thunder":"0","tornado":"0","metar":"METAR KCIC 020915Z AUTO 00000KT 10SM CLR 08/07 A3017 RMK AO1" },
		{
		"date": {
		"pretty": "1:35 AM PST on February 02, 2015",
		"year": "2015",
		"mon": "02",
		"mday": "02",
		"hour": "01",
		"min": "35",
		"tzname": "America/Los_Angeles"
		},
		"utcdate": {
		"pretty": "9:35 AM GMT on February 02, 2015",
		"year": "2015",
		"mon": "02",
		"mday": "02",
		"hour": "09",
		"min": "35",
		"tzname": "UTC"
		},
		"tempm":"7.0", "tempi":"44.6","dewptm":"6.0", "dewpti":"42.8","hum":"93","wspdm":"0.0", "wspdi":"0.0","wgustm":"-9999.0", "wgusti":"-9999.0","wdird":"0","wdire":"North","vism":"16.1", "visi":"10.0","pressurem":"1021.6", "pressurei":"30.17","windchillm":"-999", "windchilli":"-999","heatindexm":"-9999", "heatindexi":"-9999","precipm":"-9999.00", "precipi":"-9999.00","conds":"Clear","icon":"clear","fog":"0","rain":"0","snow":"0","hail":"0","thunder":"0","tornado":"0","metar":"METAR KCIC 020935Z AUTO 00000KT 10SM CLR 07/06 A3017 RMK AO1" },
		{
		"date": {
		"pretty": "1:55 AM PST on February 02, 2015",
		"year": "2015",
		"mon": "02",
		"mday": "02",
		"hour": "01",
		"min": "55",
		"tzname": "America/Los_Angeles"
		},
		"utcdate": {
		"pretty": "9:55 AM GMT on February 02, 2015",
		"year": "2015",
		"mon": "02",
		"mday": "02",
		"hour": "09",
		"min": "55",
		"tzname": "UTC"
		},
		"tempm":"7.0", "tempi":"44.6","dewptm":"7.0", "dewpti":"44.6","hum":"100","wspdm":"0.0", "wspdi":"0.0","wgustm":"-9999.0", "wgusti":"-9999.0","wdird":"0","wdire":"North","vism":"16.1", "visi":"10.0","pressurem":"1021.6", "pressurei":"30.17","windchillm":"-999", "windchilli":"-999","heatindexm":"-9999", "heatindexi":"-9999","precipm":"-9999.00", "precipi":"-9999.00","conds":"Clear","icon":"clear","fog":"0","rain":"0","snow":"0","hail":"0","thunder":"0","tornado":"0","metar":"METAR KCIC 020955Z AUTO 00000KT 10SM CLR 07/07 A3017 RMK AO1" },
		{
		"date": {
		"pretty": "2:15 AM PST on February 02, 2015",
		"year": "2015",
		"mon": "02",
		"mday": "02",
		"hour": "02",
		"min": "15",
		"tzname": "America/Los_Angeles"
		},
		"utcdate": {
		"pretty": "10:15 AM GMT on February 02, 2015",
		"year": "2015",
		"mon": "02",
		"mday": "02",
		"hour": "10",
		"min": "15",
		"tzname": "UTC"
		},
		"tempm":"8.0", "tempi":"46.4","dewptm":"7.0", "dewpti":"44.6","hum":"93","wspdm":"5.6", "wspdi":"3.5","wgustm":"-9999.0", "wgusti":"-9999.0","wdird":"10","wdire":"North","vism":"16.1", "visi":"10.0","pressurem":"1021.6", "pressurei":"30.17","windchillm":"7.3", "windchilli":"45.2","heatindexm":"-9999", "heatindexi":"-9999","precipm":"-9999.00", "precipi":"-9999.00","conds":"Partly Cloudy","icon":"partlycloudy","fog":"0","rain":"0","snow":"0","hail":"0","thunder":"0","tornado":"0","metar":"METAR KCIC 021015Z AUTO 01003KT 10SM FEW110 08/07 A3017 RMK AO1" },
		{
		"date": {
		"pretty": "2:35 AM PST on February 02, 2015",
		"year": "2015",
		"mon": "02",
		"mday": "02",
		"hour": "02",
		"min": "35",
		"tzname": "America/Los_Angeles"
		},
		"utcdate": {
		"pretty": "10:35 AM GMT on February 02, 2015",
		"year": "2015",
		"mon": "02",
		"mday": "02",
		"hour": "10",
		"min": "35",
		"tzname": "UTC"
		},
		"tempm":"8.0", "tempi":"46.4","dewptm":"7.0", "dewpti":"44.6","hum":"93","wspdm":"0.0", "wspdi":"0.0","wgustm":"-9999.0", "wgusti":"-9999.0","wdird":"0","wdire":"North","vism":"16.1", "visi":"10.0","pressurem":"1021.6", "pressurei":"30.17","windchillm":"-999", "windchilli":"-999","heatindexm":"-9999", "heatindexi":"-9999","precipm":"-9999.00", "precipi":"-9999.00","conds":"Scattered Clouds","icon":"partlycloudy","fog":"0","rain":"0","snow":"0","hail":"0","thunder":"0","tornado":"0","metar":"METAR KCIC 021035Z AUTO 00000KT 10SM SCT110 08/07 A3017 RMK AO1" },
		{
		"date": {
		"pretty": "2:55 AM PST on February 02, 2015",
		"year": "2015",
		"mon": "02",
		"mday": "02",
		"hour": "02",
		"min": "55",
		"tzname": "America/Los_Angeles"
		},
		"utcdate": {
		"pretty": "10:55 AM GMT on February 02, 2015",
		"year": "2015",
		"mon": "02",
		"mday": "02",
		"hour": "10",
		"min": "55",
		"tzname": "UTC"
		},
		"tempm":"8.0", "tempi":"46.4","dewptm":"7.0", "dewpti":"44.6","hum":"93","wspdm":"0.0", "wspdi":"0.0","wgustm":"-9999.0", "wgusti":"-9999.0","wdird":"0","wdire":"North","vism":"16.1", "visi":"10.0","pressurem":"1021.6", "pressurei":"30.17","windchillm":"-999", "windchilli":"-999","heatindexm":"-9999", "heatindexi":"-9999","precipm":"-9999.00", "precipi":"-9999.00","conds":"Scattered Clouds","icon":"partlycloudy","fog":"0","rain":"0","snow":"0","hail":"0","thunder":"0","tornado":"0","metar":"METAR KCIC 021055Z AUTO 00000KT 10SM SCT110 08/07 A3017 RMK AO1" },
		{
		"date": {
		"pretty": "3:15 AM PST on February 02, 2015",
		"year": "2015",
		"mon": "02",
		"mday": "02",
		"hour": "03",
		"min": "15",
		"tzname": "America/Los_Angeles"
		},
		"utcdate": {
		"pretty": "11:15 AM GMT on February 02, 2015",
		"year": "2015",
		"mon": "02",
		"mday": "02",
		"hour": "11",
		"min": "15",
		"tzname": "UTC"
		},
		"tempm":"8.0", "tempi":"46.4","dewptm":"7.0", "dewpti":"44.6","hum":"93","wspdm":"0.0", "wspdi":"0.0","wgustm":"-9999.0", "wgusti":"-9999.0","wdird":"0","wdire":"North","vism":"16.1", "visi":"10.0","pressurem":"1021.2", "pressurei":"30.16","windchillm":"-999", "windchilli":"-999","heatindexm":"-9999", "heatindexi":"-9999","precipm":"-9999.00", "precipi":"-9999.00","conds":"Partly Cloudy","icon":"partlycloudy","fog":"0","rain":"0","snow":"0","hail":"0","thunder":"0","tornado":"0","metar":"METAR KCIC 021115Z AUTO 00000KT 10SM FEW110 08/07 A3016 RMK AO1" },
		{
		"date": {
		"pretty": "3:35 AM PST on February 02, 2015",
		"year": "2015",
		"mon": "02",
		"mday": "02",
		"hour": "03",
		"min": "35",
		"tzname": "America/Los_Angeles"
		},
		"utcdate": {
		"pretty": "11:35 AM GMT on February 02, 2015",
		"year": "2015",
		"mon": "02",
		"mday": "02",
		"hour": "11",
		"min": "35",
		"tzname": "UTC"
		},
		"tempm":"8.0", "tempi":"46.4","dewptm":"7.0", "dewpti":"44.6","hum":"93","wspdm":"0.0", "wspdi":"0.0","wgustm":"-9999.0", "wgusti":"-9999.0","wdird":"0","wdire":"North","vism":"16.1", "visi":"10.0","pressurem":"1021.2", "pressurei":"30.16","windchillm":"-999", "windchilli":"-999","heatindexm":"-9999", "heatindexi":"-9999","precipm":"-9999.00", "precipi":"-9999.00","conds":"Mostly Cloudy","icon":"mostlycloudy","fog":"0","rain":"0","snow":"0","hail":"0","thunder":"0","tornado":"0","metar":"METAR KCIC 021135Z AUTO 00000KT 10SM BKN100 08/07 A3016 RMK AO1" },
		{
		"date": {
		"pretty": "3:55 AM PST on February 02, 2015",
		"year": "2015",
		"mon": "02",
		"mday": "02",
		"hour": "03",
		"min": "55",
		"tzname": "America/Los_Angeles"
		},
		"utcdate": {
		"pretty": "11:55 AM GMT on February 02, 2015",
		"year": "2015",
		"mon": "02",
		"mday": "02",
		"hour": "11",
		"min": "55",
		"tzname": "UTC"
		},
		"tempm":"8.0", "tempi":"46.4","dewptm":"7.0", "dewpti":"44.6","hum":"93","wspdm":"0.0", "wspdi":"0.0","wgustm":"-9999.0", "wgusti":"-9999.0","wdird":"0","wdire":"North","vism":"16.1", "visi":"10.0","pressurem":"1021.2", "pressurei":"30.16","windchillm":"-999", "windchilli":"-999","heatindexm":"-9999", "heatindexi":"-9999","precipm":"-9999.00", "precipi":"-9999.00","conds":"Overcast","icon":"cloudy","fog":"0","rain":"0","snow":"0","hail":"0","thunder":"0","tornado":"0","metar":"METAR KCIC 021155Z AUTO 00000KT 10SM OVC100 08/07 A3016 RMK AO1" },
		{
		"date": {
		"pretty": "4:15 AM PST on February 02, 2015",
		"year": "2015",
		"mon": "02",
		"mday": "02",
		"hour": "04",
		"min": "15",
		"tzname": "America/Los_Angeles"
		},
		"utcdate": {
		"pretty": "12:15 PM GMT on February 02, 2015",
		"year": "2015",
		"mon": "02",
		"mday": "02",
		"hour": "12",
		"min": "15",
		"tzname": "UTC"
		},
		"tempm":"8.0", "tempi":"46.4","dewptm":"7.0", "dewpti":"44.6","hum":"93","wspdm":"0.0", "wspdi":"0.0","wgustm":"-9999.0", "wgusti":"-9999.0","wdird":"0","wdire":"North","vism":"16.1", "visi":"10.0","pressurem":"1021.2", "pressurei":"30.16","windchillm":"-999", "windchilli":"-999","heatindexm":"-9999", "heatindexi":"-9999","precipm":"-9999.00", "precipi":"-9999.00","conds":"Overcast","icon":"cloudy","fog":"0","rain":"0","snow":"0","hail":"0","thunder":"0","tornado":"0","metar":"METAR KCIC 021215Z AUTO 00000KT 10SM OVC100 08/07 A3016 RMK AO1" },
		{
		"date": {
		"pretty": "4:35 AM PST on February 02, 2015",
		"year": "2015",
		"mon": "02",
		"mday": "02",
		"hour": "04",
		"min": "35",
		"tzname": "America/Los_Angeles"
		},
		"utcdate": {
		"pretty": "12:35 PM GMT on February 02, 2015",
		"year": "2015",
		"mon": "02",
		"mday": "02",
		"hour": "12",
		"min": "35",
		"tzname": "UTC"
		},
		"tempm":"8.0", "tempi":"46.4","dewptm":"7.0", "dewpti":"44.6","hum":"93","wspdm":"0.0", "wspdi":"0.0","wgustm":"-9999.0", "wgusti":"-9999.0","wdird":"0","wdire":"North","vism":"16.1", "visi":"10.0","pressurem":"1021.2", "pressurei":"30.16","windchillm":"-999", "windchilli":"-999","heatindexm":"-9999", "heatindexi":"-9999","precipm":"-9999.00", "precipi":"-9999.00","conds":"Overcast","icon":"cloudy","fog":"0","rain":"0","snow":"0","hail":"0","thunder":"0","tornado":"0","metar":"METAR KCIC 021235Z AUTO 00000KT 10SM OVC100 08/07 A3016 RMK AO1" },
		{
		"date": {
		"pretty": "4:55 AM PST on February 02, 2015",
		"year": "2015",
		"mon": "02",
		"mday": "02",
		"hour": "04",
		"min": "55",
		"tzname": "America/Los_Angeles"
		},
		"utcdate": {
		"pretty": "12:55 PM GMT on February 02, 2015",
		"year": "2015",
		"mon": "02",
		"mday": "02",
		"hour": "12",
		"min": "55",
		"tzname": "UTC"
		},
		"tempm":"9.0", "tempi":"48.2","dewptm":"7.0", "dewpti":"44.6","hum":"87","wspdm":"5.6", "wspdi":"3.5","wgustm":"-9999.0", "wgusti":"-9999.0","wdird":"90","wdire":"East","vism":"16.1", "visi":"10.0","pressurem":"1020.5", "pressurei":"30.14","windchillm":"-999", "windchilli":"-999","heatindexm":"-9999", "heatindexi":"-9999","precipm":"-9999.00", "precipi":"-9999.00","conds":"Overcast","icon":"cloudy","fog":"0","rain":"0","snow":"0","hail":"0","thunder":"0","tornado":"0","metar":"METAR KCIC 021255Z AUTO 09003KT 10SM OVC090 09/07 A3014 RMK AO1" },
		{
		"date": {
		"pretty": "5:15 AM PST on February 02, 2015",
		"year": "2015",
		"mon": "02",
		"mday": "02",
		"hour": "05",
		"min": "15",
		"tzname": "America/Los_Angeles"
		},
		"utcdate": {
		"pretty": "1:15 PM GMT on February 02, 2015",
		"year": "2015",
		"mon": "02",
		"mday": "02",
		"hour": "13",
		"min": "15",
		"tzname": "UTC"
		},
		"tempm":"8.0", "tempi":"46.4","dewptm":"7.0", "dewpti":"44.6","hum":"93","wspdm":"11.1", "wspdi":"6.9","wgustm":"-9999.0", "wgusti":"-9999.0","wdird":"280","wdire":"West","vism":"16.1", "visi":"10.0","pressurem":"1021.2", "pressurei":"30.16","windchillm":"6.1", "windchilli":"42.9","heatindexm":"-9999", "heatindexi":"-9999","precipm":"-9999.00", "precipi":"-9999.00","conds":"Overcast","icon":"cloudy","fog":"0","rain":"0","snow":"0","hail":"0","thunder":"0","tornado":"0","metar":"METAR KCIC 021315Z AUTO 28006KT 10SM OVC090 08/07 A3016 RMK AO1" },
		{
		"date": {
		"pretty": "5:35 AM PST on February 02, 2015",
		"year": "2015",
		"mon": "02",
		"mday": "02",
		"hour": "05",
		"min": "35",
		"tzname": "America/Los_Angeles"
		},
		"utcdate": {
		"pretty": "1:35 PM GMT on February 02, 2015",
		"year": "2015",
		"mon": "02",
		"mday": "02",
		"hour": "13",
		"min": "35",
		"tzname": "UTC"
		},
		"tempm":"7.0", "tempi":"44.6","dewptm":"7.0", "dewpti":"44.6","hum":"100","wspdm":"11.1", "wspdi":"6.9","wgustm":"-9999.0", "wgusti":"-9999.0","wdird":"330","wdire":"NNW","vism":"16.1", "visi":"10.0","pressurem":"1021.2", "pressurei":"30.16","windchillm":"4.9", "windchilli":"40.7","heatindexm":"-9999", "heatindexi":"-9999","precipm":"-9999.00", "precipi":"-9999.00","conds":"Overcast","icon":"cloudy","fog":"0","rain":"0","snow":"0","hail":"0","thunder":"0","tornado":"0","metar":"METAR KCIC 021335Z AUTO 33006KT 10SM OVC090 07/07 A3016 RMK AO1" },
		{
		"date": {
		"pretty": "6:47 AM PST on February 02, 2015",
		"year": "2015",
		"mon": "02",
		"mday": "02",
		"hour": "06",
		"min": "47",
		"tzname": "America/Los_Angeles"
		},
		"utcdate": {
		"pretty": "2:47 PM GMT on February 02, 2015",
		"year": "2015",
		"mon": "02",
		"mday": "02",
		"hour": "14",
		"min": "47",
		"tzname": "UTC"
		},
		"tempm":"9.0", "tempi":"48.2","dewptm":"7.0", "dewpti":"44.6","hum":"87","wspdm":"11.1", "wspdi":"6.9","wgustm":"-9999.0", "wgusti":"-9999.0","wdird":"70","wdire":"ENE","vism":"16.1", "visi":"10.0","pressurem":"1021.2", "pressurei":"30.16","windchillm":"-999", "windchilli":"-999","heatindexm":"-9999", "heatindexi":"-9999","precipm":"-9999.00", "precipi":"-9999.00","conds":"Mostly Cloudy","icon":"mostlycloudy","fog":"0","rain":"0","snow":"0","hail":"0","thunder":"0","tornado":"0","metar":"METAR KCIC 021447Z 07006KT 10SM SCT060 BKN080 09/07 A3016" },
		{
		"date": {
		"pretty": "7:57 AM PST on February 02, 2015",
		"year": "2015",
		"mon": "02",
		"mday": "02",
		"hour": "07",
		"min": "57",
		"tzname": "America/Los_Angeles"
		},
		"utcdate": {
		"pretty": "3:57 PM GMT on February 02, 2015",
		"year": "2015",
		"mon": "02",
		"mday": "02",
		"hour": "15",
		"min": "57",
		"tzname": "UTC"
		},
		"tempm":"8.0", "tempi":"46.4","dewptm":"8.0", "dewpti":"46.4","hum":"100","wspdm":"22.2", "wspdi":"13.8","wgustm":"-9999.0", "wgusti":"-9999.0","wdird":"310","wdire":"NW","vism":"14.5", "visi":"9.0","pressurem":"1022.9", "pressurei":"30.21","windchillm":"4.6", "windchilli":"40.4","heatindexm":"-9999", "heatindexi":"-9999","precipm":"-9999.00", "precipi":"-9999.00","conds":"Mostly Cloudy","icon":"mostlycloudy","fog":"0","rain":"0","snow":"0","hail":"0","thunder":"0","tornado":"0","metar":"METAR KCIC 021557Z 31012KT 9SM BKN070 BKN110 08/08 A3021" },
		{
		"date": {
		"pretty": "8:47 AM PST on February 02, 2015",
		"year": "2015",
		"mon": "02",
		"mday": "02",
		"hour": "08",
		"min": "47",
		"tzname": "America/Los_Angeles"
		},
		"utcdate": {
		"pretty": "4:47 PM GMT on February 02, 2015",
		"year": "2015",
		"mon": "02",
		"mday": "02",
		"hour": "16",
		"min": "47",
		"tzname": "UTC"
		},
		"tempm":"10.0", "tempi":"50.0","dewptm":"8.0", "dewpti":"46.4","hum":"87","wspdm":"9.3", "wspdi":"5.8","wgustm":"-9999.0", "wgusti":"-9999.0","wdird":"360","wdire":"North","vism":"16.1", "visi":"10.0","pressurem":"1022.6", "pressurei":"30.20","windchillm":"-999", "windchilli":"-999","heatindexm":"-9999", "heatindexi":"-9999","precipm":"-9999.00", "precipi":"-9999.00","conds":"Overcast","icon":"cloudy","fog":"0","rain":"0","snow":"0","hail":"0","thunder":"0","tornado":"0","metar":"METAR KCIC 021647Z 36005KT 10SM BKN070 OVC100 10/08 A3020" },
		{
		"date": {
		"pretty": "10:47 AM PST on February 02, 2015",
		"year": "2015",
		"mon": "02",
		"mday": "02",
		"hour": "10",
		"min": "47",
		"tzname": "America/Los_Angeles"
		},
		"utcdate": {
		"pretty": "6:47 PM GMT on February 02, 2015",
		"year": "2015",
		"mon": "02",
		"mday": "02",
		"hour": "18",
		"min": "47",
		"tzname": "UTC"
		},
		"tempm":"13.0", "tempi":"55.4","dewptm":"12.0", "dewpti":"53.6","hum":"94","wspdm":"14.8", "wspdi":"9.2","wgustm":"-9999.0", "wgusti":"-9999.0","wdird":"280","wdire":"West","vism":"16.1", "visi":"10.0","pressurem":"1022.6", "pressurei":"30.20","windchillm":"-999", "windchilli":"-999","heatindexm":"-9999", "heatindexi":"-9999","precipm":"-9999.00", "precipi":"-9999.00","conds":"Overcast","icon":"cloudy","fog":"0","rain":"0","snow":"0","hail":"0","thunder":"0","tornado":"0","metar":"METAR KCIC 021847Z 28008KT 10SM BKN090 OVC150 13/12 A3020" },
		{
		"date": {
		"pretty": "11:51 AM PST on February 02, 2015",
		"year": "2015",
		"mon": "02",
		"mday": "02",
		"hour": "11",
		"min": "51",
		"tzname": "America/Los_Angeles"
		},
		"utcdate": {
		"pretty": "7:51 PM GMT on February 02, 2015",
		"year": "2015",
		"mon": "02",
		"mday": "02",
		"hour": "19",
		"min": "51",
		"tzname": "UTC"
		},
		"tempm":"14.0", "tempi":"57.2","dewptm":"12.0", "dewpti":"53.6","hum":"88","wspdm":"11.1", "wspdi":"6.9","wgustm":"-9999.0", "wgusti":"-9999.0","wdird":"310","wdire":"NW","vism":"16.1", "visi":"10.0","pressurem":"1022.2", "pressurei":"30.19","windchillm":"-999", "windchilli":"-999","heatindexm":"-9999", "heatindexi":"-9999","precipm":"-9999.00", "precipi":"-9999.00","conds":"Mostly Cloudy","icon":"mostlycloudy","fog":"0","rain":"0","snow":"0","hail":"0","thunder":"0","tornado":"0","metar":"METAR KCIC 021951Z 31006KT 10SM BKN085 BKN110 14/12 A3019" },
		{
		"date": {
		"pretty": "12:47 PM PST on February 02, 2015",
		"year": "2015",
		"mon": "02",
		"mday": "02",
		"hour": "12",
		"min": "47",
		"tzname": "America/Los_Angeles"
		},
		"utcdate": {
		"pretty": "8:47 PM GMT on February 02, 2015",
		"year": "2015",
		"mon": "02",
		"mday": "02",
		"hour": "20",
		"min": "47",
		"tzname": "UTC"
		},
		"tempm":"14.0", "tempi":"57.2","dewptm":"12.0", "dewpti":"53.6","hum":"88","wspdm":"14.8", "wspdi":"9.2","wgustm":"-9999.0", "wgusti":"-9999.0","wdird":"320","wdire":"NW","vism":"16.1", "visi":"10.0","pressurem":"1021.2", "pressurei":"30.16","windchillm":"-999", "windchilli":"-999","heatindexm":"-9999", "heatindexi":"-9999","precipm":"-9999.00", "precipi":"-9999.00","conds":"Mostly Cloudy","icon":"mostlycloudy","fog":"0","rain":"0","snow":"0","hail":"0","thunder":"0","tornado":"0","metar":"METAR KCIC 022047Z 32008KT 10SM BKN090 BKN150 0VC200 14/12 A3016" },
		{
		"date": {
		"pretty": "1:56 PM PST on February 02, 2015",
		"year": "2015",
		"mon": "02",
		"mday": "02",
		"hour": "13",
		"min": "56",
		"tzname": "America/Los_Angeles"
		},
		"utcdate": {
		"pretty": "9:56 PM GMT on February 02, 2015",
		"year": "2015",
		"mon": "02",
		"mday": "02",
		"hour": "21",
		"min": "56",
		"tzname": "UTC"
		},
		"tempm":"15.0", "tempi":"59.0","dewptm":"11.0", "dewpti":"51.8","hum":"77","wspdm":"9.3", "wspdi":"5.8","wgustm":"-9999.0", "wgusti":"-9999.0","wdird":"310","wdire":"NW","vism":"16.1", "visi":"10.0","pressurem":"1020.2", "pressurei":"30.13","windchillm":"-999", "windchilli":"-999","heatindexm":"-9999", "heatindexi":"-9999","precipm":"-9999.00", "precipi":"-9999.00","conds":"Mostly Cloudy","icon":"mostlycloudy","fog":"0","rain":"0","snow":"0","hail":"0","thunder":"0","tornado":"0","metar":"METAR KCIC 022156Z 31005KT 10SM BKN090 BKN150 0VC200 15/11 A3013" },
		{
		"date": {
		"pretty": "2:47 PM PST on February 02, 2015",
		"year": "2015",
		"mon": "02",
		"mday": "02",
		"hour": "14",
		"min": "47",
		"tzname": "America/Los_Angeles"
		},
		"utcdate": {
		"pretty": "10:47 PM GMT on February 02, 2015",
		"year": "2015",
		"mon": "02",
		"mday": "02",
		"hour": "22",
		"min": "47",
		"tzname": "UTC"
		},
		"tempm":"15.0", "tempi":"59.0","dewptm":"10.0", "dewpti":"50.0","hum":"72","wspdm":"14.8", "wspdi":"9.2","wgustm":"-9999.0", "wgusti":"-9999.0","wdird":"330","wdire":"NNW","vism":"16.1", "visi":"10.0","pressurem":"1019.5", "pressurei":"30.11","windchillm":"-999", "windchilli":"-999","heatindexm":"-9999", "heatindexi":"-9999","precipm":"-9999.00", "precipi":"-9999.00","conds":"Mostly Cloudy","icon":"mostlycloudy","fog":"0","rain":"0","snow":"0","hail":"0","thunder":"0","tornado":"0","metar":"METAR KCIC 022247Z 33008KT 10SM SCT100 BKN180 15/10 A3011" },
		{
		"date": {
		"pretty": "3:59 PM PST on February 02, 2015",
		"year": "2015",
		"mon": "02",
		"mday": "02",
		"hour": "15",
		"min": "59",
		"tzname": "America/Los_Angeles"
		},
		"utcdate": {
		"pretty": "11:59 PM GMT on February 02, 2015",
		"year": "2015",
		"mon": "02",
		"mday": "02",
		"hour": "23",
		"min": "59",
		"tzname": "UTC"
		},
		"tempm":"15.0", "tempi":"59.0","dewptm":"10.0", "dewpti":"50.0","hum":"72","wspdm":"18.5", "wspdi":"11.5","wgustm":"-9999.0", "wgusti":"-9999.0","wdird":"310","wdire":"NW","vism":"16.1", "visi":"10.0","pressurem":"1020.2", "pressurei":"30.13","windchillm":"-999", "windchilli":"-999","heatindexm":"-9999", "heatindexi":"-9999","precipm":"-9999.00", "precipi":"-9999.00","conds":"Mostly Cloudy","icon":"mostlycloudy","fog":"0","rain":"0","snow":"0","hail":"0","thunder":"0","tornado":"0","metar":"METAR KCIC 022359Z 31010KT 10SM BKN070 BKN110 15/10 A3013" },
		{
		"date": {
		"pretty": "4:47 PM PST on February 02, 2015",
		"year": "2015",
		"mon": "02",
		"mday": "02",
		"hour": "16",
		"min": "47",
		"tzname": "America/Los_Angeles"
		},
		"utcdate": {
		"pretty": "12:47 AM GMT on February 03, 2015",
		"year": "2015",
		"mon": "02",
		"mday": "03",
		"hour": "00",
		"min": "47",
		"tzname": "UTC"
		},
		"tempm":"14.0", "tempi":"57.2","dewptm":"10.0", "dewpti":"50.0","hum":"77","wspdm":"18.5", "wspdi":"11.5","wgustm":"-9999.0", "wgusti":"-9999.0","wdird":"310","wdire":"NW","vism":"16.1", "visi":"10.0","pressurem":"1020.2", "pressurei":"30.13","windchillm":"-999", "windchilli":"-999","heatindexm":"-9999", "heatindexi":"-9999","precipm":"-9999.00", "precipi":"-9999.00","conds":"Mostly Cloudy","icon":"mostlycloudy","fog":"0","rain":"0","snow":"0","hail":"0","thunder":"0","tornado":"0","metar":"METAR KCIC 030047Z 31010KT 10SM FEW060 BKN080 BKN095 14/10 A3013" },
		{
		"date": {
		"pretty": "5:49 PM PST on February 02, 2015",
		"year": "2015",
		"mon": "02",
		"mday": "02",
		"hour": "17",
		"min": "49",
		"tzname": "America/Los_Angeles"
		},
		"utcdate": {
		"pretty": "1:49 AM GMT on February 03, 2015",
		"year": "2015",
		"mon": "02",
		"mday": "03",
		"hour": "01",
		"min": "49",
		"tzname": "UTC"
		},
		"tempm":"14.0", "tempi":"57.2","dewptm":"12.0", "dewpti":"53.6","hum":"88","wspdm":"11.1", "wspdi":"6.9","wgustm":"-9999.0", "wgusti":"-9999.0","wdird":"260","wdire":"West","vism":"16.1", "visi":"10.0","pressurem":"1020.2", "pressurei":"30.13","windchillm":"-999", "windchilli":"-999","heatindexm":"-9999", "heatindexi":"-9999","precipm":"-9999.00", "precipi":"-9999.00","conds":"Mostly Cloudy","icon":"mostlycloudy","fog":"0","rain":"0","snow":"0","hail":"0","thunder":"0","tornado":"0","metar":"METAR KCIC 030149Z 26006KT 10SM BKN060 BKN070 14/12 A3013" },
		{
		"date": {
		"pretty": "5:55 PM PST on February 02, 2015",
		"year": "2015",
		"mon": "02",
		"mday": "02",
		"hour": "17",
		"min": "55",
		"tzname": "America/Los_Angeles"
		},
		"utcdate": {
		"pretty": "1:55 AM GMT on February 03, 2015",
		"year": "2015",
		"mon": "02",
		"mday": "03",
		"hour": "01",
		"min": "55",
		"tzname": "UTC"
		},
		"tempm":"14.0", "tempi":"57.2","dewptm":"12.0", "dewpti":"53.6","hum":"88","wspdm":"0.0", "wspdi":"0.0","wgustm":"-9999.0", "wgusti":"-9999.0","wdird":"0","wdire":"North","vism":"16.1", "visi":"10.0","pressurem":"1020.2", "pressurei":"30.13","windchillm":"-999", "windchilli":"-999","heatindexm":"-9999", "heatindexi":"-9999","precipm":"-9999.00", "precipi":"-9999.00","conds":"Overcast","icon":"cloudy","fog":"0","rain":"0","snow":"0","hail":"0","thunder":"0","tornado":"0","metar":"METAR KCIC 030155Z AUTO 00000KT 10SM SCT060 OVC070 14/12 A3013 RMK AO1" },
		{
		"date": {
		"pretty": "6:15 PM PST on February 02, 2015",
		"year": "2015",
		"mon": "02",
		"mday": "02",
		"hour": "18",
		"min": "15",
		"tzname": "America/Los_Angeles"
		},
		"utcdate": {
		"pretty": "2:15 AM GMT on February 03, 2015",
		"year": "2015",
		"mon": "02",
		"mday": "03",
		"hour": "02",
		"min": "15",
		"tzname": "UTC"
		},
		"tempm":"13.0", "tempi":"55.4","dewptm":"13.0", "dewpti":"55.4","hum":"100","wspdm":"5.6", "wspdi":"3.5","wgustm":"-9999.0", "wgusti":"-9999.0","wdird":"290","wdire":"WNW","vism":"16.1", "visi":"10.0","pressurem":"1019.9", "pressurei":"30.12","windchillm":"-999", "windchilli":"-999","heatindexm":"-9999", "heatindexi":"-9999","precipm":"-9999.00", "precipi":"-9999.00","conds":"Overcast","icon":"cloudy","fog":"0","rain":"0","snow":"0","hail":"0","thunder":"0","tornado":"0","metar":"METAR KCIC 030215Z AUTO 29003KT 10SM OVC070 13/13 A3012 RMK AO1" },
		{
		"date": {
		"pretty": "6:35 PM PST on February 02, 2015",
		"year": "2015",
		"mon": "02",
		"mday": "02",
		"hour": "18",
		"min": "35",
		"tzname": "America/Los_Angeles"
		},
		"utcdate": {
		"pretty": "2:35 AM GMT on February 03, 2015",
		"year": "2015",
		"mon": "02",
		"mday": "03",
		"hour": "02",
		"min": "35",
		"tzname": "UTC"
		},
		"tempm":"13.0", "tempi":"55.4","dewptm":"13.0", "dewpti":"55.4","hum":"100","wspdm":"7.4", "wspdi":"4.6","wgustm":"-9999.0", "wgusti":"-9999.0","wdird":"290","wdire":"WNW","vism":"16.1", "visi":"10.0","pressurem":"1019.9", "pressurei":"30.12","windchillm":"-999", "windchilli":"-999","heatindexm":"-9999", "heatindexi":"-9999","precipm":"-9999.00", "precipi":"-9999.00","conds":"Overcast","icon":"cloudy","fog":"0","rain":"0","snow":"0","hail":"0","thunder":"0","tornado":"0","metar":"METAR KCIC 030235Z AUTO 29004KT 10SM OVC080 13/13 A3012 RMK AO1" },
		{
		"date": {
		"pretty": "6:55 PM PST on February 02, 2015",
		"year": "2015",
		"mon": "02",
		"mday": "02",
		"hour": "18",
		"min": "55",
		"tzname": "America/Los_Angeles"
		},
		"utcdate": {
		"pretty": "2:55 AM GMT on February 03, 2015",
		"year": "2015",
		"mon": "02",
		"mday": "03",
		"hour": "02",
		"min": "55",
		"tzname": "UTC"
		},
		"tempm":"13.0", "tempi":"55.4","dewptm":"12.0", "dewpti":"53.6","hum":"94","wspdm":"13.0", "wspdi":"8.1","wgustm":"-9999.0", "wgusti":"-9999.0","wdird":"300","wdire":"WNW","vism":"16.1", "visi":"10.0","pressurem":"1020.2", "pressurei":"30.13","windchillm":"-999", "windchilli":"-999","heatindexm":"-9999", "heatindexi":"-9999","precipm":"-9999.00", "precipi":"-9999.00","conds":"Overcast","icon":"cloudy","fog":"0","rain":"0","snow":"0","hail":"0","thunder":"0","tornado":"0","metar":"METAR KCIC 030255Z AUTO 30007KT 10SM BKN080 OVC090 13/12 A3013 RMK AO1" },
		{
		"date": {
		"pretty": "6:59 PM PST on February 02, 2015",
		"year": "2015",
		"mon": "02",
		"mday": "02",
		"hour": "18",
		"min": "59",
		"tzname": "America/Los_Angeles"
		},
		"utcdate": {
		"pretty": "2:59 AM GMT on February 03, 2015",
		"year": "2015",
		"mon": "02",
		"mday": "03",
		"hour": "02",
		"min": "59",
		"tzname": "UTC"
		},
		"tempm":"12.0", "tempi":"53.6","dewptm":"12.0", "dewpti":"53.6","hum":"100","wspdm":"11.1", "wspdi":"6.9","wgustm":"-9999.0", "wgusti":"-9999.0","wdird":"290","wdire":"WNW","vism":"16.1", "visi":"10.0","pressurem":"1020.5", "pressurei":"30.14","windchillm":"-999", "windchilli":"-999","heatindexm":"-9999", "heatindexi":"-9999","precipm":"-9999.00", "precipi":"-9999.00","conds":"Overcast","icon":"cloudy","fog":"0","rain":"0","snow":"0","hail":"0","thunder":"0","tornado":"0","metar":"METAR KCIC 030259Z 29006KT 10SM BKN080 OVC090 12/12 A3014" },
		{
		"date": {
		"pretty": "7:15 PM PST on February 02, 2015",
		"year": "2015",
		"mon": "02",
		"mday": "02",
		"hour": "19",
		"min": "15",
		"tzname": "America/Los_Angeles"
		},
		"utcdate": {
		"pretty": "3:15 AM GMT on February 03, 2015",
		"year": "2015",
		"mon": "02",
		"mday": "03",
		"hour": "03",
		"min": "15",
		"tzname": "UTC"
		},
		"tempm":"12.0", "tempi":"53.6","dewptm":"12.0", "dewpti":"53.6","hum":"100","wspdm":"13.0", "wspdi":"8.1","wgustm":"-9999.0", "wgusti":"-9999.0","wdird":"320","wdire":"NW","vism":"16.1", "visi":"10.0","pressurem":"1020.5", "pressurei":"30.14","windchillm":"-999", "windchilli":"-999","heatindexm":"-9999", "heatindexi":"-9999","precipm":"-9999.00", "precipi":"-9999.00","conds":"Scattered Clouds","icon":"partlycloudy","fog":"0","rain":"0","snow":"0","hail":"0","thunder":"0","tornado":"0","metar":"METAR KCIC 030315Z AUTO 32007KT 10SM FEW080 SCT090 12/12 A3014 RMK AO1" },
		{
		"date": {
		"pretty": "7:35 PM PST on February 02, 2015",
		"year": "2015",
		"mon": "02",
		"mday": "02",
		"hour": "19",
		"min": "35",
		"tzname": "America/Los_Angeles"
		},
		"utcdate": {
		"pretty": "3:35 AM GMT on February 03, 2015",
		"year": "2015",
		"mon": "02",
		"mday": "03",
		"hour": "03",
		"min": "35",
		"tzname": "UTC"
		},
		"tempm":"11.0", "tempi":"51.8","dewptm":"11.0", "dewpti":"51.8","hum":"100","wspdm":"13.0", "wspdi":"8.1","wgustm":"-9999.0", "wgusti":"-9999.0","wdird":"340","wdire":"NNW","vism":"16.1", "visi":"10.0","pressurem":"1020.5", "pressurei":"30.14","windchillm":"-999", "windchilli":"-999","heatindexm":"-9999", "heatindexi":"-9999","precipm":"-9999.00", "precipi":"-9999.00","conds":"Clear","icon":"clear","fog":"0","rain":"0","snow":"0","hail":"0","thunder":"0","tornado":"0","metar":"METAR KCIC 030335Z AUTO 34007KT 10SM CLR 11/11 A3014 RMK AO1" },
		{
		"date": {
		"pretty": "7:55 PM PST on February 02, 2015",
		"year": "2015",
		"mon": "02",
		"mday": "02",
		"hour": "19",
		"min": "55",
		"tzname": "America/Los_Angeles"
		},
		"utcdate": {
		"pretty": "3:55 AM GMT on February 03, 2015",
		"year": "2015",
		"mon": "02",
		"mday": "03",
		"hour": "03",
		"min": "55",
		"tzname": "UTC"
		},
		"tempm":"10.0", "tempi":"50.0","dewptm":"10.0", "dewpti":"50.0","hum":"100","wspdm":"11.1", "wspdi":"6.9","wgustm":"-9999.0", "wgusti":"-9999.0","wdird":"330","wdire":"NNW","vism":"16.1", "visi":"10.0","pressurem":"1020.5", "pressurei":"30.14","windchillm":"-999", "windchilli":"-999","heatindexm":"-9999", "heatindexi":"-9999","precipm":"-9999.00", "precipi":"-9999.00","conds":"Clear","icon":"clear","fog":"0","rain":"0","snow":"0","hail":"0","thunder":"0","tornado":"0","metar":"METAR KCIC 030355Z AUTO 33006KT 10SM CLR 10/10 A3014 RMK AO1" },
		{
		"date": {
		"pretty": "8:15 PM PST on February 02, 2015",
		"year": "2015",
		"mon": "02",
		"mday": "02",
		"hour": "20",
		"min": "15",
		"tzname": "America/Los_Angeles"
		},
		"utcdate": {
		"pretty": "4:15 AM GMT on February 03, 2015",
		"year": "2015",
		"mon": "02",
		"mday": "03",
		"hour": "04",
		"min": "15",
		"tzname": "UTC"
		},
		"tempm":"10.0", "tempi":"50.0","dewptm":"10.0", "dewpti":"50.0","hum":"100","wspdm":"11.1", "wspdi":"6.9","wgustm":"-9999.0", "wgusti":"-9999.0","wdird":"320","wdire":"NW","vism":"16.1", "visi":"10.0","pressurem":"1020.5", "pressurei":"30.14","windchillm":"-999", "windchilli":"-999","heatindexm":"-9999", "heatindexi":"-9999","precipm":"-9999.00", "precipi":"-9999.00","conds":"Clear","icon":"clear","fog":"0","rain":"0","snow":"0","hail":"0","thunder":"0","tornado":"0","metar":"METAR KCIC 030415Z AUTO 32006KT 10SM CLR 10/10 A3014 RMK AO1" },
		{
		"date": {
		"pretty": "8:35 PM PST on February 02, 2015",
		"year": "2015",
		"mon": "02",
		"mday": "02",
		"hour": "20",
		"min": "35",
		"tzname": "America/Los_Angeles"
		},
		"utcdate": {
		"pretty": "4:35 AM GMT on February 03, 2015",
		"year": "2015",
		"mon": "02",
		"mday": "03",
		"hour": "04",
		"min": "35",
		"tzname": "UTC"
		},
		"tempm":"9.0", "tempi":"48.2","dewptm":"9.0", "dewpti":"48.2","hum":"100","wspdm":"0.0", "wspdi":"0.0","wgustm":"-9999.0", "wgusti":"-9999.0","wdird":"0","wdire":"North","vism":"16.1", "visi":"10.0","pressurem":"1020.5", "pressurei":"30.14","windchillm":"-999", "windchilli":"-999","heatindexm":"-9999", "heatindexi":"-9999","precipm":"-9999.00", "precipi":"-9999.00","conds":"Clear","icon":"clear","fog":"0","rain":"0","snow":"0","hail":"0","thunder":"0","tornado":"0","metar":"METAR KCIC 030435Z AUTO 00000KT 10SM CLR 09/09 A3014 RMK AO1" },
		{
		"date": {
		"pretty": "8:55 PM PST on February 02, 2015",
		"year": "2015",
		"mon": "02",
		"mday": "02",
		"hour": "20",
		"min": "55",
		"tzname": "America/Los_Angeles"
		},
		"utcdate": {
		"pretty": "4:55 AM GMT on February 03, 2015",
		"year": "2015",
		"mon": "02",
		"mday": "03",
		"hour": "04",
		"min": "55",
		"tzname": "UTC"
		},
		"tempm":"9.0", "tempi":"48.2","dewptm":"9.0", "dewpti":"48.2","hum":"100","wspdm":"9.3", "wspdi":"5.8","wgustm":"-9999.0", "wgusti":"-9999.0","wdird":"310","wdire":"NW","vism":"16.1", "visi":"10.0","pressurem":"1020.5", "pressurei":"30.14","windchillm":"-999", "windchilli":"-999","heatindexm":"-9999", "heatindexi":"-9999","precipm":"-9999.00", "precipi":"-9999.00","conds":"Clear","icon":"clear","fog":"0","rain":"0","snow":"0","hail":"0","thunder":"0","tornado":"0","metar":"METAR KCIC 030455Z AUTO 31005KT 10SM CLR 09/09 A3014 RMK AO1" },
		{
		"date": {
		"pretty": "9:15 PM PST on February 02, 2015",
		"year": "2015",
		"mon": "02",
		"mday": "02",
		"hour": "21",
		"min": "15",
		"tzname": "America/Los_Angeles"
		},
		"utcdate": {
		"pretty": "5:15 AM GMT on February 03, 2015",
		"year": "2015",
		"mon": "02",
		"mday": "03",
		"hour": "05",
		"min": "15",
		"tzname": "UTC"
		},
		"tempm":"9.0", "tempi":"48.2","dewptm":"9.0", "dewpti":"48.2","hum":"100","wspdm":"9.3", "wspdi":"5.8","wgustm":"-9999.0", "wgusti":"-9999.0","wdird":"340","wdire":"NNW","vism":"16.1", "visi":"10.0","pressurem":"1020.5", "pressurei":"30.14","windchillm":"-999", "windchilli":"-999","heatindexm":"-9999", "heatindexi":"-9999","precipm":"-9999.00", "precipi":"-9999.00","conds":"Clear","icon":"clear","fog":"0","rain":"0","snow":"0","hail":"0","thunder":"0","tornado":"0","metar":"METAR KCIC 030515Z AUTO 34005KT 10SM CLR 09/09 A3014 RMK AO1" },
		{
		"date": {
		"pretty": "9:35 PM PST on February 02, 2015",
		"year": "2015",
		"mon": "02",
		"mday": "02",
		"hour": "21",
		"min": "35",
		"tzname": "America/Los_Angeles"
		},
		"utcdate": {
		"pretty": "5:35 AM GMT on February 03, 2015",
		"year": "2015",
		"mon": "02",
		"mday": "03",
		"hour": "05",
		"min": "35",
		"tzname": "UTC"
		},
		"tempm":"9.0", "tempi":"48.2","dewptm":"9.0", "dewpti":"48.2","hum":"100","wspdm":"7.4", "wspdi":"4.6","wgustm":"-9999.0", "wgusti":"-9999.0","wdird":"350","wdire":"North","vism":"16.1", "visi":"10.0","pressurem":"1020.5", "pressurei":"30.14","windchillm":"-999", "windchilli":"-999","heatindexm":"-9999", "heatindexi":"-9999","precipm":"-9999.00", "precipi":"-9999.00","conds":"Clear","icon":"clear","fog":"0","rain":"0","snow":"0","hail":"0","thunder":"0","tornado":"0","metar":"METAR KCIC 030535Z AUTO 35004KT 10SM CLR 09/09 A3014 RMK AO1" },
		{
		"date": {
		"pretty": "9:55 PM PST on February 02, 2015",
		"year": "2015",
		"mon": "02",
		"mday": "02",
		"hour": "21",
		"min": "55",
		"tzname": "America/Los_Angeles"
		},
		"utcdate": {
		"pretty": "5:55 AM GMT on February 03, 2015",
		"year": "2015",
		"mon": "02",
		"mday": "03",
		"hour": "05",
		"min": "55",
		"tzname": "UTC"
		},
		"tempm":"9.0", "tempi":"48.2","dewptm":"9.0", "dewpti":"48.2","hum":"100","wspdm":"0.0", "wspdi":"0.0","wgustm":"-9999.0", "wgusti":"-9999.0","wdird":"0","wdire":"North","vism":"16.1", "visi":"10.0","pressurem":"1020.5", "pressurei":"30.14","windchillm":"-999", "windchilli":"-999","heatindexm":"-9999", "heatindexi":"-9999","precipm":"-9999.00", "precipi":"-9999.00","conds":"Clear","icon":"clear","fog":"0","rain":"0","snow":"0","hail":"0","thunder":"0","tornado":"0","metar":"METAR KCIC 030555Z AUTO 00000KT 10SM CLR 09/09 A3014 RMK AO1" },
		{
		"date": {
		"pretty": "10:15 PM PST on February 02, 2015",
		"year": "2015",
		"mon": "02",
		"mday": "02",
		"hour": "22",
		"min": "15",
		"tzname": "America/Los_Angeles"
		},
		"utcdate": {
		"pretty": "6:15 AM GMT on February 03, 2015",
		"year": "2015",
		"mon": "02",
		"mday": "03",
		"hour": "06",
		"min": "15",
		"tzname": "UTC"
		},
		"tempm":"9.0", "tempi":"48.2","dewptm":"9.0", "dewpti":"48.2","hum":"100","wspdm":"0.0", "wspdi":"0.0","wgustm":"-9999.0", "wgusti":"-9999.0","wdird":"0","wdire":"North","vism":"16.1", "visi":"10.0","pressurem":"1020.5", "pressurei":"30.14","windchillm":"-999", "windchilli":"-999","heatindexm":"-9999", "heatindexi":"-9999","precipm":"-9999.00", "precipi":"-9999.00","conds":"Clear","icon":"clear","fog":"0","rain":"0","snow":"0","hail":"0","thunder":"0","tornado":"0","metar":"METAR KCIC 030615Z AUTO 00000KT 10SM CLR 09/09 A3014 RMK AO1" },
		{
		"date": {
		"pretty": "10:35 PM PST on February 02, 2015",
		"year": "2015",
		"mon": "02",
		"mday": "02",
		"hour": "22",
		"min": "35",
		"tzname": "America/Los_Angeles"
		},
		"utcdate": {
		"pretty": "6:35 AM GMT on February 03, 2015",
		"year": "2015",
		"mon": "02",
		"mday": "03",
		"hour": "06",
		"min": "35",
		"tzname": "UTC"
		},
		"tempm":"8.0", "tempi":"46.4","dewptm":"8.0", "dewpti":"46.4","hum":"100","wspdm":"0.0", "wspdi":"0.0","wgustm":"-9999.0", "wgusti":"-9999.0","wdird":"0","wdire":"North","vism":"0.8", "visi":"0.5","pressurem":"1020.9", "pressurei":"30.15","windchillm":"-999", "windchilli":"-999","heatindexm":"-9999", "heatindexi":"-9999","precipm":"-9999.00", "precipi":"-9999.00","conds":"Mostly Cloudy","icon":"mostlycloudy","fog":"0","rain":"0","snow":"0","hail":"0","thunder":"0","tornado":"0","metar":"METAR KCIC 030635Z AUTO 00000KT 1/2SM BKN001 08/08 A3015 RMK AO1" },
		{
		"date": {
		"pretty": "10:55 PM PST on February 02, 2015",
		"year": "2015",
		"mon": "02",
		"mday": "02",
		"hour": "22",
		"min": "55",
		"tzname": "America/Los_Angeles"
		},
		"utcdate": {
		"pretty": "6:55 AM GMT on February 03, 2015",
		"year": "2015",
		"mon": "02",
		"mday": "03",
		"hour": "06",
		"min": "55",
		"tzname": "UTC"
		},
		"tempm":"8.0", "tempi":"46.4","dewptm":"8.0", "dewpti":"46.4","hum":"100","wspdm":"0.0", "wspdi":"0.0","wgustm":"-9999.0", "wgusti":"-9999.0","wdird":"0","wdire":"North","vism":"4.0", "visi":"2.5","pressurem":"1020.5", "pressurei":"30.14","windchillm":"-999", "windchilli":"-999","heatindexm":"-9999", "heatindexi":"-9999","precipm":"-9999.00", "precipi":"-9999.00","conds":"Overcast","icon":"cloudy","fog":"0","rain":"0","snow":"0","hail":"0","thunder":"0","tornado":"0","metar":"METAR KCIC 030655Z AUTO 00000KT 2 1/2SM OVC002 08/08 A3014 RMK AO1" },
		{
		"date": {
		"pretty": "11:15 PM PST on February 02, 2015",
		"year": "2015",
		"mon": "02",
		"mday": "02",
		"hour": "23",
		"min": "15",
		"tzname": "America/Los_Angeles"
		},
		"utcdate": {
		"pretty": "7:15 AM GMT on February 03, 2015",
		"year": "2015",
		"mon": "02",
		"mday": "03",
		"hour": "07",
		"min": "15",
		"tzname": "UTC"
		},
		"tempm":"8.0", "tempi":"46.4","dewptm":"8.0", "dewpti":"46.4","hum":"100","wspdm":"0.0", "wspdi":"0.0","wgustm":"-9999.0", "wgusti":"-9999.0","wdird":"0","wdire":"North","vism":"0.4", "visi":"0.2","pressurem":"1020.5", "pressurei":"30.14","windchillm":"-999", "windchilli":"-999","heatindexm":"-9999", "heatindexi":"-9999","precipm":"-9999.00", "precipi":"-9999.00","conds":"Overcast","icon":"cloudy","fog":"0","rain":"0","snow":"0","hail":"0","thunder":"0","tornado":"0","metar":"METAR KCIC 030715Z AUTO 00000KT 1/4SM OVC002 08/08 A3014 RMK AO1" },
		{
		"date": {
		"pretty": "11:35 PM PST on February 02, 2015",
		"year": "2015",
		"mon": "02",
		"mday": "02",
		"hour": "23",
		"min": "35",
		"tzname": "America/Los_Angeles"
		},
		"utcdate": {
		"pretty": "7:35 AM GMT on February 03, 2015",
		"year": "2015",
		"mon": "02",
		"mday": "03",
		"hour": "07",
		"min": "35",
		"tzname": "UTC"
		},
		"tempm":"8.0", "tempi":"46.4","dewptm":"8.0", "dewpti":"46.4","hum":"100","wspdm":"0.0", "wspdi":"0.0","wgustm":"-9999.0", "wgusti":"-9999.0","wdird":"0","wdire":"North","vism":"0.4", "visi":"0.2","pressurem":"1020.5", "pressurei":"30.14","windchillm":"-999", "windchilli":"-999","heatindexm":"-9999", "heatindexi":"-9999","precipm":"-9999.00", "precipi":"-9999.00","conds":"Overcast","icon":"cloudy","fog":"0","rain":"0","snow":"0","hail":"0","thunder":"0","tornado":"0","metar":"METAR KCIC 030735Z AUTO 00000KT M1/4SM OVC002 08/08 A3014 RMK AO1" },
		{
		"date": {
		"pretty": "11:55 PM PST on February 02, 2015",
		"year": "2015",
		"mon": "02",
		"mday": "02",
		"hour": "23",
		"min": "55",
		"tzname": "America/Los_Angeles"
		},
		"utcdate": {
		"pretty": "7:55 AM GMT on February 03, 2015",
		"year": "2015",
		"mon": "02",
		"mday": "03",
		"hour": "07",
		"min": "55",
		"tzname": "UTC"
		},
		"tempm":"8.0", "tempi":"46.4","dewptm":"8.0", "dewpti":"46.4","hum":"100","wspdm":"0.0", "wspdi":"0.0","wgustm":"-9999.0", "wgusti":"-9999.0","wdird":"0","wdire":"North","vism":"0.4", "visi":"0.2","pressurem":"1020.5", "pressurei":"30.14","windchillm":"-999", "windchilli":"-999","heatindexm":"-9999", "heatindexi":"-9999","precipm":"-9999.00", "precipi":"-9999.00","conds":"Overcast","icon":"cloudy","fog":"0","rain":"0","snow":"0","hail":"0","thunder":"0","tornado":"0","metar":"METAR KCIC 030755Z AUTO 00000KT 1/4SM OVC001 08/08 A3014 RMK AO1" }
		],
		"dailysummary": [
		{ "date": {
		"pretty": "12:00 PM PST on February 02, 2015",
		"year": "2015",
		"mon": "02",
		"mday": "02",
		"hour": "12",
		"min": "00",
		"tzname": "America/Los_Angeles"
		},
		"fog":"0","rain":"0","snow":"0","snowfallm":"0.00", "snowfalli":"0.00","monthtodatesnowfallm":"", "monthtodatesnowfalli":"","since1julsnowfallm":"", "since1julsnowfalli":"","snowdepthm":"", "snowdepthi":"","hail":"0","thunder":"0","tornado":"0","meantempm":"11", "meantempi":"52","meandewptm":"9", "meandewpti":"48","meanpressurem":"1021", "meanpressurei":"30.15","meanwindspdm":"5", "meanwindspdi":"3","meanwdire":"","meanwdird":"318","meanvism":"14", "meanvisi":"9","humidity":"","maxtempm":"15", "maxtempi":"59","mintempm":"7", "mintempi":"44","maxhumidity":"100","minhumidity":"72","maxdewptm":"13", "maxdewpti":"55","mindewptm":"6", "mindewpti":"43","maxpressurem":"1023", "maxpressurei":"30.21","minpressurem":"1020", "minpressurei":"30.11","maxwspdm":"23", "maxwspdi":"14","minwspdm":"0", "minwspdi":"0","maxvism":"16", "maxvisi":"10","minvism":"0", "minvisi":"0","gdegreedays":"2","heatingdegreedays":"14","coolingdegreedays":"0","precipm":"0.00", "precipi":"0.00","precipsource":"","heatingdegreedaysnormal":"","monthtodateheatingdegreedays":"","monthtodateheatingdegreedaysnormal":"","since1sepheatingdegreedays":"","since1sepheatingdegreedaysnormal":"","since1julheatingdegreedays":"","since1julheatingdegreedaysnormal":"","coolingdegreedaysnormal":"","monthtodatecoolingdegreedays":"","monthtodatecoolingdegreedaysnormal":"","since1sepcoolingdegreedays":"","since1sepcoolingdegreedaysnormal":"","since1jancoolingdegreedays":"","since1jancoolingdegreedaysnormal":"" }
		]
	}
}